digraph G
{
  bgcolor="transparent";
  edge [fontname="FreeSans",fontsize="10",labelfontname="FreeSans",labelfontsize="10"];
  node [fontname="FreeSans",fontsize="10",shape=record];
  Node1 [label="OMax.oracle.c",height=0.2,width=0.4,color="black", fillcolor="grey75", style="filled" fontcolor="black"];
  Node1 -> Node2 [color="midnightblue",fontsize="10",style="solid",fontname="FreeSans"];
  Node2 [label="sstream",height=0.2,width=0.4,color="grey75"];
  Node1 -> Node3 [color="midnightblue",fontsize="10",style="solid",fontname="FreeSans"];
  Node3 [label="Oracle_classes.hpp",height=0.2,width=0.4,color="black",URL="$_oracle__classes_8hpp.html",tooltip="Factor Oracle prototypes."];
  Node3 -> Node4 [color="midnightblue",fontsize="10",style="solid",fontname="FreeSans"];
  Node4 [label="list",height=0.2,width=0.4,color="grey75"];
  Node3 -> Node5 [color="midnightblue",fontsize="10",style="solid",fontname="FreeSans"];
  Node5 [label="vector",height=0.2,width=0.4,color="grey75"];
  Node3 -> Node6 [color="midnightblue",fontsize="10",style="solid",fontname="FreeSans"];
  Node6 [label="iostream",height=0.2,width=0.4,color="grey75"];
  Node3 -> Node7 [color="midnightblue",fontsize="10",style="solid",fontname="FreeSans"];
  Node7 [label="utility",height=0.2,width=0.4,color="grey75"];
  Node3 -> Node8 [color="midnightblue",fontsize="10",style="solid",fontname="FreeSans"];
  Node8 [label="algorithm",height=0.2,width=0.4,color="grey75"];
  Node1 -> Node9 [color="midnightblue",fontsize="10",style="solid",fontname="FreeSans"];
  Node9 [label="OMax.oracle.h",height=0.2,width=0.4,color="black",URL="$_o_max_8oracle_8h.html",tooltip="OMax.oracle external structure."];
  Node9 -> Node10 [color="midnightblue",fontsize="10",style="solid",fontname="FreeSans"];
  Node10 [label="ext.h",height=0.2,width=0.4,color="grey75"];
  Node9 -> Node11 [color="midnightblue",fontsize="10",style="solid",fontname="FreeSans"];
  Node11 [label="ext_obex.h",height=0.2,width=0.4,color="grey75"];
  Node9 -> Node12 [color="midnightblue",fontsize="10",style="solid",fontname="FreeSans"];
  Node12 [label="jpatcher_api.h",height=0.2,width=0.4,color="grey75"];
  Node9 -> Node13 [color="midnightblue",fontsize="10",style="solid",fontname="FreeSans"];
  Node13 [label="jgraphics.h",height=0.2,width=0.4,color="grey75"];
  Node9 -> Node14 [color="midnightblue",fontsize="10",style="solid",fontname="FreeSans"];
  Node14 [label="ext_atomic.h",height=0.2,width=0.4,color="grey75"];
}
