digraph G
{
  bgcolor="transparent";
  edge [fontname="FreeSans",fontsize="10",labelfontname="FreeSans",labelfontsize="10"];
  node [fontname="FreeSans",fontsize="10",shape=record];
  Node1 [label="OMax.state2date.c",height=0.2,width=0.4,color="black", fillcolor="grey75", style="filled" fontcolor="black"];
  Node1 -> Node2 [color="midnightblue",fontsize="10",style="solid",fontname="FreeSans"];
  Node2 [label="Oracle_data.hpp",height=0.2,width=0.4,color="black",URL="$_oracle__data_8hpp.html",tooltip="Data Sequence prototypes &amp; methodes."];
  Node2 -> Node3 [color="midnightblue",fontsize="10",style="solid",fontname="FreeSans"];
  Node3 [label="vector",height=0.2,width=0.4,color="grey75"];
  Node2 -> Node4 [color="midnightblue",fontsize="10",style="solid",fontname="FreeSans"];
  Node4 [label="map",height=0.2,width=0.4,color="grey75"];
  Node2 -> Node5 [color="midnightblue",fontsize="10",style="solid",fontname="FreeSans"];
  Node5 [label="Oracle_label.hpp",height=0.2,width=0.4,color="black",URL="$_oracle__label_8hpp.html",tooltip="Data Sequence states prototypes."];
  Node5 -> Node6 [color="midnightblue",fontsize="10",style="solid",fontname="FreeSans"];
  Node6 [label="list",height=0.2,width=0.4,color="grey75"];
  Node5 -> Node7 [color="midnightblue",fontsize="10",style="solid",fontname="FreeSans"];
  Node7 [label="iostream",height=0.2,width=0.4,color="grey75"];
  Node1 -> Node8 [color="midnightblue",fontsize="10",style="solid",fontname="FreeSans"];
  Node8 [label="ext.h",height=0.2,width=0.4,color="grey75"];
  Node1 -> Node9 [color="midnightblue",fontsize="10",style="solid",fontname="FreeSans"];
  Node9 [label="ext_obex.h",height=0.2,width=0.4,color="grey75"];
  Node1 -> Node10 [color="midnightblue",fontsize="10",style="solid",fontname="FreeSans"];
  Node10 [label="jpatcher_api.h",height=0.2,width=0.4,color="grey75"];
  Node1 -> Node11 [color="midnightblue",fontsize="10",style="solid",fontname="FreeSans"];
  Node11 [label="jgraphics.h",height=0.2,width=0.4,color="grey75"];
  Node1 -> Node12 [color="midnightblue",fontsize="10",style="solid",fontname="FreeSans"];
  Node12 [label="OMax.data.h",height=0.2,width=0.4,color="black",URL="$_o_max_8data_8h.html",tooltip="OMax.data external structure."];
  Node12 -> Node8 [color="midnightblue",fontsize="10",style="solid",fontname="FreeSans"];
  Node12 -> Node9 [color="midnightblue",fontsize="10",style="solid",fontname="FreeSans"];
  Node12 -> Node10 [color="midnightblue",fontsize="10",style="solid",fontname="FreeSans"];
  Node12 -> Node11 [color="midnightblue",fontsize="10",style="solid",fontname="FreeSans"];
  Node12 -> Node13 [color="midnightblue",fontsize="10",style="solid",fontname="FreeSans"];
  Node13 [label="ext_atomic.h",height=0.2,width=0.4,color="grey75"];
}
