digraph G
{
  bgcolor="transparent";
  edge [fontname="FreeSans",fontsize="10",labelfontname="FreeSans",labelfontsize="10"];
  node [fontname="FreeSans",fontsize="10",shape=record];
  Node1 [label="OMax.oracle.h",height=0.2,width=0.4,color="black", fillcolor="grey75", style="filled" fontcolor="black"];
  Node1 -> Node2 [color="midnightblue",fontsize="10",style="solid",fontname="FreeSans"];
  Node2 [label="ext.h",height=0.2,width=0.4,color="grey75"];
  Node1 -> Node3 [color="midnightblue",fontsize="10",style="solid",fontname="FreeSans"];
  Node3 [label="ext_obex.h",height=0.2,width=0.4,color="grey75"];
  Node1 -> Node4 [color="midnightblue",fontsize="10",style="solid",fontname="FreeSans"];
  Node4 [label="jpatcher_api.h",height=0.2,width=0.4,color="grey75"];
  Node1 -> Node5 [color="midnightblue",fontsize="10",style="solid",fontname="FreeSans"];
  Node5 [label="jgraphics.h",height=0.2,width=0.4,color="grey75"];
  Node1 -> Node6 [color="midnightblue",fontsize="10",style="solid",fontname="FreeSans"];
  Node6 [label="ext_atomic.h",height=0.2,width=0.4,color="grey75"];
}
