digraph G {
  bgcolor=transparent;
  compound=true
  node [ fontsize="10", fontname="FreeSans"];
  edge [ labelfontsize="10", labelfontname="FreeSans"];
  subgraph clusterdir_1b9e43ffd41b47e2a62c03d2db4f81db {
    graph [ bgcolor="#ddddee", pencolor="black", label="externalsPPC" fontname="FreeSans", fontsize="10", URL="dir_1b9e43ffd41b47e2a62c03d2db4f81db.html"]
  dir_63dd3c410753fdf8aed561f07fffe46d [shape=box, label="OMax.build", style="filled", fillcolor="#eeeeff", pencolor="black", URL="dir_63dd3c410753fdf8aed561f07fffe46d.html"];
  }
  dir_bc5a9248bf4fe98448844334faba2c26 [shape=box label="cpp" URL="dir_bc5a9248bf4fe98448844334faba2c26.html"];
  dir_63dd3c410753fdf8aed561f07fffe46d->dir_bc5a9248bf4fe98448844334faba2c26 [headlabel="1", labeldistance=1.5 headhref="dir_000007_000024.html"];
}
