digraph G {
  bgcolor=transparent;
  compound=true
  node [ fontsize="10", fontname="FreeSans"];
  edge [ labelfontsize="10", labelfontname="FreeSans"];
  subgraph clusterdir_107a25c6bdb6b2ae3b1949d8fc61cdce {
    graph [ bgcolor="#ddddee", pencolor="black", label="src" fontname="FreeSans", fontsize="10", URL="dir_107a25c6bdb6b2ae3b1949d8fc61cdce.html"]
  subgraph clusterdir_e8250d0a5be738ae169816400d03bf45 {
    graph [ bgcolor="#eeeeff", pencolor="black", label="" URL="dir_e8250d0a5be738ae169816400d03bf45.html"];
    dir_e8250d0a5be738ae169816400d03bf45 [shape=plaintext label="externals"];
    dir_95119ab96754d269c7a25f02eab1e79d [shape=box label="OMax.build" color="black" fillcolor="white" style="filled" URL="dir_95119ab96754d269c7a25f02eab1e79d.html"];
    dir_a5cfd844215523777e1176680ff3ec1e [shape=box label="OMax.data" color="black" fillcolor="white" style="filled" URL="dir_a5cfd844215523777e1176680ff3ec1e.html"];
    dir_0e73b6c3a171b1a68ebb1d31725238eb [shape=box label="OMax.date2state" color="black" fillcolor="white" style="filled" URL="dir_0e73b6c3a171b1a68ebb1d31725238eb.html"];
    dir_5475131732a384334b895a592c0c0160 [shape=box label="OMax.learn" color="black" fillcolor="white" style="filled" URL="dir_5475131732a384334b895a592c0c0160.html"];
    dir_95bdf6215241184888c1fd451a6b1f2a [shape=box label="OMax.oracle" color="black" fillcolor="white" style="filled" URL="dir_95bdf6215241184888c1fd451a6b1f2a.html"];
    dir_d9cf34b05d3a54907d2720f6882a8166 [shape=box label="OMax.read" color="black" fillcolor="white" style="filled" URL="dir_d9cf34b05d3a54907d2720f6882a8166.html"];
    dir_f6a119f02f2b2e9e9c7c005e0c5c2440 [shape=box label="OMax.render" color="black" fillcolor="white" style="filled" URL="dir_f6a119f02f2b2e9e9c7c005e0c5c2440.html"];
    dir_8d33480dd7c5488165fbeb65688e6a64 [shape=box label="OMax.SLT" color="black" fillcolor="white" style="filled" URL="dir_8d33480dd7c5488165fbeb65688e6a64.html"];
    dir_ecfdd127c54b5c1ee55f9ab72697cbad [shape=box label="OMax.state2date" color="black" fillcolor="white" style="filled" URL="dir_ecfdd127c54b5c1ee55f9ab72697cbad.html"];
  }
  }
  dir_bc5a9248bf4fe98448844334faba2c26 [shape=box label="cpp" URL="dir_bc5a9248bf4fe98448844334faba2c26.html"];
  dir_0e73b6c3a171b1a68ebb1d31725238eb->dir_a5cfd844215523777e1176680ff3ec1e [headlabel="1", labeldistance=1.5 headhref="dir_000006_000005.html"];
  dir_0e73b6c3a171b1a68ebb1d31725238eb->dir_bc5a9248bf4fe98448844334faba2c26 [headlabel="1", labeldistance=1.5 headhref="dir_000006_000013.html"];
  dir_8d33480dd7c5488165fbeb65688e6a64->dir_95bdf6215241184888c1fd451a6b1f2a [headlabel="1", labeldistance=1.5 headhref="dir_000011_000008.html"];
  dir_8d33480dd7c5488165fbeb65688e6a64->dir_bc5a9248bf4fe98448844334faba2c26 [headlabel="1", labeldistance=1.5 headhref="dir_000011_000013.html"];
  dir_95bdf6215241184888c1fd451a6b1f2a->dir_bc5a9248bf4fe98448844334faba2c26 [headlabel="1", labeldistance=1.5 headhref="dir_000008_000013.html"];
  dir_a5cfd844215523777e1176680ff3ec1e->dir_bc5a9248bf4fe98448844334faba2c26 [headlabel="2", labeldistance=1.5 headhref="dir_000005_000013.html"];
  dir_d9cf34b05d3a54907d2720f6882a8166->dir_95bdf6215241184888c1fd451a6b1f2a [headlabel="1", labeldistance=1.5 headhref="dir_000009_000008.html"];
  dir_d9cf34b05d3a54907d2720f6882a8166->dir_bc5a9248bf4fe98448844334faba2c26 [headlabel="1", labeldistance=1.5 headhref="dir_000009_000013.html"];
  dir_95119ab96754d269c7a25f02eab1e79d->dir_a5cfd844215523777e1176680ff3ec1e [headlabel="1", labeldistance=1.5 headhref="dir_000004_000005.html"];
  dir_95119ab96754d269c7a25f02eab1e79d->dir_bc5a9248bf4fe98448844334faba2c26 [headlabel="1", labeldistance=1.5 headhref="dir_000004_000013.html"];
  dir_f6a119f02f2b2e9e9c7c005e0c5c2440->dir_a5cfd844215523777e1176680ff3ec1e [headlabel="1", labeldistance=1.5 headhref="dir_000010_000005.html"];
  dir_f6a119f02f2b2e9e9c7c005e0c5c2440->dir_bc5a9248bf4fe98448844334faba2c26 [headlabel="1", labeldistance=1.5 headhref="dir_000010_000013.html"];
  dir_5475131732a384334b895a592c0c0160->dir_95bdf6215241184888c1fd451a6b1f2a [headlabel="1", labeldistance=1.5 headhref="dir_000007_000008.html"];
  dir_5475131732a384334b895a592c0c0160->dir_a5cfd844215523777e1176680ff3ec1e [headlabel="1", labeldistance=1.5 headhref="dir_000007_000005.html"];
  dir_5475131732a384334b895a592c0c0160->dir_bc5a9248bf4fe98448844334faba2c26 [headlabel="1", labeldistance=1.5 headhref="dir_000007_000013.html"];
  dir_ecfdd127c54b5c1ee55f9ab72697cbad->dir_a5cfd844215523777e1176680ff3ec1e [headlabel="1", labeldistance=1.5 headhref="dir_000012_000005.html"];
  dir_ecfdd127c54b5c1ee55f9ab72697cbad->dir_bc5a9248bf4fe98448844334faba2c26 [headlabel="1", labeldistance=1.5 headhref="dir_000012_000013.html"];
}
