digraph G
{
  bgcolor="transparent";
  edge [fontname="FreeSans",fontsize="10",labelfontname="FreeSans",labelfontsize="10"];
  node [fontname="FreeSans",fontsize="10",shape=record];
  rankdir=LR;
  Node1 [label="t_OMax_learn",height=0.2,width=0.4,color="black", fillcolor="grey75", style="filled" fontcolor="black"];
  Node2 -> Node1 [dir=back,color="darkorchid3",fontsize="10",style="dashed",label="builder",fontname="FreeSans"];
  Node2 [label="O_learner",height=0.2,width=0.4,color="black",URL="$class_o__learner.html",tooltip="Writer in FO and Data structures."];
  Node3 -> Node2 [dir=back,color="darkorchid3",fontsize="10",style="dashed",label="data",fontname="FreeSans"];
  Node3 [label="O_data",height=0.2,width=0.4,color="black",URL="$class_o__data.html",tooltip="Data sequence class."];
  Node4 -> Node3 [dir=back,color="darkorchid3",fontsize="10",style="dashed",label="state_vect",fontname="FreeSans"];
  Node4 [label="std::vector\< O_label * \>",height=0.2,width=0.4,color="grey75"];
  Node5 -> Node4 [dir=back,color="darkorchid3",fontsize="10",style="dashed",label="elements",fontname="FreeSans"];
  Node5 [label="O_label",height=0.2,width=0.4,color="black",URL="$class_o__label.html",tooltip="Generic state of a data sequence."];
  Node6 -> Node3 [dir=back,color="darkorchid3",fontsize="10",style="dashed",label="states2dates\ndates2states",fontname="FreeSans"];
  Node6 [label="std::map\< int, int \>",height=0.2,width=0.4,color="grey75"];
  Node7 -> Node2 [dir=back,color="darkorchid3",fontsize="10",style="dashed",label="oracle",fontname="FreeSans"];
  Node7 [label="O_oracle",height=0.2,width=0.4,color="black",URL="$class_o__oracle.html",tooltip="Factor Oracle (FO) class."];
  Node8 -> Node7 [dir=back,color="darkorchid3",fontsize="10",style="dashed",label="state_vect",fontname="FreeSans"];
  Node8 [label="std::vector\< O_state * \>",height=0.2,width=0.4,color="grey75"];
  Node9 -> Node8 [dir=back,color="darkorchid3",fontsize="10",style="dashed",label="elements",fontname="FreeSans"];
  Node9 [label="O_state",height=0.2,width=0.4,color="black",URL="$class_o__state.html",tooltip="Factor Oracle state class."];
  Node10 -> Node9 [dir=back,color="darkorchid3",fontsize="10",style="dashed",label="rsuff",fontname="FreeSans"];
  Node10 [label="std::list\< pair\< O_state *, int \> \>",height=0.2,width=0.4,color="grey75"];
  Node11 -> Node10 [dir=back,color="darkorchid3",fontsize="10",style="dashed",label="elements",fontname="FreeSans"];
  Node11 [label="std::pair\< O_state *, int \>",height=0.2,width=0.4,color="black",URL="$structstd_1_1pair.html"];
  Node9 -> Node11 [dir=back,color="darkorchid3",fontsize="10",style="dashed",label="first",fontname="FreeSans"];
  Node11 -> Node9 [dir=back,color="darkorchid3",fontsize="10",style="dashed",label="suff",fontname="FreeSans"];
  Node12 -> Node9 [dir=back,color="darkorchid3",fontsize="10",style="dashed",label="trans",fontname="FreeSans"];
  Node12 [label="std::list\< O_state * \>",height=0.2,width=0.4,color="grey75"];
  Node9 -> Node12 [dir=back,color="darkorchid3",fontsize="10",style="dashed",label="elements",fontname="FreeSans"];
}
