{
	"pattrstorage" : 	{
		"name" : "Yam",
		"slots" : 		{
			"1" : 			{
				"id" : 1,
				"data" : 				{
					"Brightness" : [ 18.267715 ],
					"Damping" : [ 31.04195 ],
					"Dry/Wet" : [  ],
					"ExcitationLPosX" : [ 17.0 ],
					"ExcitationLPosY" : [ 42.0 ],
					"ExcitationRPosX" : [ 57.0 ],
					"ExcitationRPosY" : [ 61.0 ],
					"ExcitationRandEnable" : [ 1.0 ],
					"ExcitationRandRate" : [ 3700.0 ],
					"ExcitationSmooth" : [ 1000.0 ],
					"Modes" : [ 90.0 ],
					"PickupLPosX" : [ 42.0 ],
					"PickupLPosX[1]" : [ 13.0 ],
					"PickupLPosY" : [ 89.0 ],
					"PickupLPosY[1]" : [ 42.0 ],
					"PickupRPosX" : [ 80.0 ],
					"PickupRPosX[1]" : [ 53.0 ],
					"PickupRPosY" : [ 53.0 ],
					"PickupRPosY[1]" : [ 80.0 ],
					"PickupRandEnable" : [ 1.0 ],
					"PickupRandRate" : [ 5000.0 ],
					"PickupSmooth" : [ 1000.0 ],
					"Resonator" : [ 0.0 ],
					"StringPitch" : [  ],
					"on" : [ 0 ],
					"pRangeMax" : [ 24 ],
					"pRangeMin" : [ 71 ],
					"ramp" : [ 0 ],
					"thresh" : [ 0.3 ],
					"gb.contact.onset::bonkDebounce" : [  ],
					"gb.contact.onset::bonkMinVel" : [  ],
					"gb.contact.onset::bonkSchmitTresh" : [  ]
				}

			}
,
			"2" : 			{
				"id" : 2,
				"data" : 				{
					"Brightness" : [ 52.125984 ],
					"Damping" : [ 30.444031 ],
					"Dry/Wet" : [  ],
					"ExcitationLPosX" : [ 11.0 ],
					"ExcitationLPosY" : [ 63.0 ],
					"ExcitationRPosX" : [ 25.0 ],
					"ExcitationRPosY" : [ 30.0 ],
					"ExcitationRandEnable" : [ 1.0 ],
					"ExcitationRandRate" : [ 3700.0 ],
					"ExcitationSmooth" : [ 1000.0 ],
					"Modes" : [ 86.0 ],
					"PickupLPosX" : [ 71.0 ],
					"PickupLPosX[1]" : [ 13.0 ],
					"PickupLPosY" : [ 60.0 ],
					"PickupLPosY[1]" : [ 71.0 ],
					"PickupRPosX" : [ 37.0 ],
					"PickupRPosX[1]" : [ 56.0 ],
					"PickupRPosY" : [ 56.0 ],
					"PickupRPosY[1]" : [ 37.0 ],
					"PickupRandEnable" : [ 1.0 ],
					"PickupRandRate" : [ 5000.0 ],
					"PickupSmooth" : [ 1000.0 ],
					"Resonator" : [ 8.0 ],
					"StringPitch" : [  ],
					"on" : [ 0 ],
					"pRangeMax" : [ 33 ],
					"pRangeMin" : [ 73 ],
					"ramp" : [ 0 ],
					"thresh" : [ 0.2 ],
					"gb.contact.onset::bonkDebounce" : [  ],
					"gb.contact.onset::bonkMinVel" : [  ],
					"gb.contact.onset::bonkSchmitTresh" : [  ]
				}

			}
,
			"3" : 			{
				"id" : 3,
				"data" : 				{
					"Brightness" : [ 28.503937 ],
					"Damping" : [ 33.534428 ],
					"Dry/Wet" : [  ],
					"ExcitationLPosX" : [ 51.0 ],
					"ExcitationLPosY" : [ 42.0 ],
					"ExcitationRPosX" : [ 28.0 ],
					"ExcitationRPosY" : [ 61.0 ],
					"ExcitationRandEnable" : [ 1.0 ],
					"ExcitationRandRate" : [ 3700.0 ],
					"ExcitationSmooth" : [ 1000.0 ],
					"Modes" : [ 90.0 ],
					"PickupLPosX" : [ 53.0 ],
					"PickupLPosX[1]" : [ 13.0 ],
					"PickupLPosY" : [ 89.0 ],
					"PickupLPosY[1]" : [ 53.0 ],
					"PickupRPosX" : [ 12.0 ],
					"PickupRPosX[1]" : [ 53.0 ],
					"PickupRPosY" : [ 53.0 ],
					"PickupRPosY[1]" : [ 12.0 ],
					"PickupRandEnable" : [ 1.0 ],
					"PickupRandRate" : [ 5000.0 ],
					"PickupSmooth" : [ 1000.0 ],
					"Resonator" : [ 0.0 ],
					"StringPitch" : [  ],
					"on" : [ 0 ],
					"pRangeMax" : [ 24 ],
					"pRangeMin" : [ 71 ],
					"ramp" : [ 833 ],
					"thresh" : [ 0.3 ],
					"gb.contact.onset::bonkDebounce" : [  ],
					"gb.contact.onset::bonkMinVel" : [  ],
					"gb.contact.onset::bonkSchmitTresh" : [  ]
				}

			}
,
			"4" : 			{
				"id" : 4,
				"data" : 				{
					"Brightness" : [ 46.614174 ],
					"Damping" : [ 30.266787 ],
					"Dry/Wet" : [  ],
					"ExcitationLPosX" : [ 23.0 ],
					"ExcitationLPosY" : [ 54.0 ],
					"ExcitationRPosX" : [ 16.0 ],
					"ExcitationRPosY" : [ 86.0 ],
					"ExcitationRandEnable" : [ 1.0 ],
					"ExcitationRandRate" : [ 3700.0 ],
					"ExcitationSmooth" : [ 1000.0 ],
					"Modes" : [ 90.0 ],
					"PickupLPosX" : [ 76.0 ],
					"PickupLPosX[1]" : [ 13.0 ],
					"PickupLPosY" : [ 10.0 ],
					"PickupLPosY[1]" : [ 76.0 ],
					"PickupRPosX" : [ 87.0 ],
					"PickupRPosX[1]" : [ 29.0 ],
					"PickupRPosY" : [ 29.0 ],
					"PickupRPosY[1]" : [ 87.0 ],
					"PickupRandEnable" : [ 1.0 ],
					"PickupRandRate" : [ 5000.0 ],
					"PickupSmooth" : [ 1000.0 ],
					"Resonator" : [ 6.0 ],
					"StringPitch" : [  ],
					"on" : [ 1 ],
					"pRangeMax" : [ 66 ],
					"pRangeMin" : [ 127 ],
					"ramp" : [ 0 ],
					"thresh" : [ 0.3 ],
					"gb.contact.onset::bonkDebounce" : [  ],
					"gb.contact.onset::bonkMinVel" : [  ],
					"gb.contact.onset::bonkSchmitTresh" : [  ]
				}

			}
,
			"9" : 			{
				"id" : 9,
				"data" : 				{
					"Brightness" : [ 31.496063 ],
					"Damping" : [ 2.362205 ],
					"Dry/Wet" : [  ],
					"ExcitationLPosX" : [ 55.0 ],
					"ExcitationLPosY" : [ 36.0 ],
					"ExcitationRPosX" : [ 89.0 ],
					"ExcitationRPosY" : [ 55.0 ],
					"ExcitationRandEnable" : [ 1.0 ],
					"ExcitationRandRate" : [ 1200.0 ],
					"ExcitationSmooth" : [ 1000.0 ],
					"Modes" : [ 90.0 ],
					"PickupLPosX" : [ 46.0 ],
					"PickupLPosX[1]" : [ 13.0 ],
					"PickupLPosY" : [ 52.0 ],
					"PickupLPosY[1]" : [ 46.0 ],
					"PickupRPosX" : [ 71.0 ],
					"PickupRPosX[1]" : [ 63.0 ],
					"PickupRPosY" : [ 63.0 ],
					"PickupRPosY[1]" : [ 71.0 ],
					"PickupRandEnable" : [ 1.0 ],
					"PickupRandRate" : [ 1600.0 ],
					"PickupSmooth" : [ 1000.0 ],
					"Resonator" : [ 0.0 ],
					"StringPitch" : [  ],
					"on" : [ 1 ],
					"pRangeMax" : [ 66 ],
					"pRangeMin" : [ 127 ],
					"ramp" : [ 0 ],
					"thresh" : [ 0.3 ],
					"gb.contact.onset::bonkDebounce" : [ 100 ],
					"gb.contact.onset::bonkMinVel" : [ 20.0 ],
					"gb.contact.onset::bonkSchmitTresh" : [ 13.725491, 45.098038 ]
				}

			}
,
			"10" : 			{
				"id" : 10,
				"data" : 				{
					"Brightness" : [ 55.118111 ],
					"Damping" : [ 37.679703 ],
					"Dry/Wet" : [  ],
					"ExcitationLPosX" : [ 61.0 ],
					"ExcitationLPosY" : [ 58.0 ],
					"ExcitationRPosX" : [ 84.0 ],
					"ExcitationRPosY" : [ 8.0 ],
					"ExcitationRandEnable" : [ 1.0 ],
					"ExcitationRandRate" : [ 1200.0 ],
					"ExcitationSmooth" : [ 1000.0 ],
					"Modes" : [ 90.0 ],
					"PickupLPosX" : [ 82.0 ],
					"PickupLPosX[1]" : [ 13.0 ],
					"PickupLPosY" : [ 14.0 ],
					"PickupLPosY[1]" : [ 82.0 ],
					"PickupRPosX" : [ 98.0 ],
					"PickupRPosX[1]" : [ 13.0 ],
					"PickupRPosY" : [ 13.0 ],
					"PickupRPosY[1]" : [ 98.0 ],
					"PickupRandEnable" : [ 1.0 ],
					"PickupRandRate" : [ 1600.0 ],
					"PickupSmooth" : [ 1000.0 ],
					"Resonator" : [ 8.0 ],
					"StringPitch" : [  ],
					"on" : [ 1 ],
					"pRangeMax" : [ 66 ],
					"pRangeMin" : [ 127 ],
					"ramp" : [ 23 ],
					"thresh" : [ 0.3 ],
					"gb.contact.onset::bonkDebounce" : [ 100 ],
					"gb.contact.onset::bonkMinVel" : [ 20.0 ],
					"gb.contact.onset::bonkSchmitTresh" : [ 13.725491, 45.098038 ]
				}

			}
,
			"11" : 			{
				"id" : 11,
				"data" : 				{
					"Brightness" : [ 64.566933 ],
					"Damping" : [ 43.336071 ],
					"Dry/Wet" : [  ],
					"ExcitationLPosX" : [ 31.0 ],
					"ExcitationLPosY" : [ 50.0 ],
					"ExcitationRPosX" : [ 33.0 ],
					"ExcitationRPosY" : [ 50.0 ],
					"ExcitationRandEnable" : [ 0.0 ],
					"ExcitationRandRate" : [ 1200.0 ],
					"ExcitationSmooth" : [ 1000.0 ],
					"Modes" : [ 90.0 ],
					"PickupLPosX" : [ 68.0 ],
					"PickupLPosX[1]" : [ 13.0 ],
					"PickupLPosY" : [ 50.0 ],
					"PickupLPosY[1]" : [ 68.0 ],
					"PickupRPosX" : [ 42.0 ],
					"PickupRPosX[1]" : [ 50.0 ],
					"PickupRPosY" : [ 50.0 ],
					"PickupRPosY[1]" : [ 42.0 ],
					"PickupRandEnable" : [ 0.0 ],
					"PickupRandRate" : [ 1600.0 ],
					"PickupSmooth" : [ 1000.0 ],
					"Resonator" : [ 1.0 ],
					"StringPitch" : [  ],
					"on" : [ 1 ],
					"pRangeMax" : [ 66 ],
					"pRangeMin" : [ 127 ],
					"ramp" : [ 158 ],
					"thresh" : [ 0.3 ],
					"gb.contact.onset::bonkDebounce" : [ 100 ],
					"gb.contact.onset::bonkMinVel" : [ 20.0 ],
					"gb.contact.onset::bonkSchmitTresh" : [ 13.725491, 45.098038 ]
				}

			}
,
			"12" : 			{
				"id" : 12,
				"data" : 				{
					"Brightness" : [ 45.669292 ],
					"Damping" : [ 37.605747 ],
					"Dry/Wet" : [  ],
					"ExcitationLPosX" : [ 33.0 ],
					"ExcitationLPosY" : [ 26.0 ],
					"ExcitationRPosX" : [ 88.0 ],
					"ExcitationRPosY" : [ 36.0 ],
					"ExcitationRandEnable" : [ 0.0 ],
					"ExcitationRandRate" : [ 1200.0 ],
					"ExcitationSmooth" : [ 1000.0 ],
					"Modes" : [ 90.0 ],
					"PickupLPosX" : [ 39.0 ],
					"PickupLPosX[1]" : [ 13.0 ],
					"PickupLPosY" : [ 46.0 ],
					"PickupLPosY[1]" : [ 39.0 ],
					"PickupRPosX" : [ 82.0 ],
					"PickupRPosX[1]" : [ 81.0 ],
					"PickupRPosY" : [ 81.0 ],
					"PickupRPosY[1]" : [ 82.0 ],
					"PickupRandEnable" : [ 0.0 ],
					"PickupRandRate" : [ 1600.0 ],
					"PickupSmooth" : [ 1000.0 ],
					"Resonator" : [ 5.0 ],
					"StringPitch" : [  ],
					"on" : [ 1 ],
					"pRangeMax" : [ 66 ],
					"pRangeMin" : [ 127 ],
					"ramp" : [ 6000 ],
					"thresh" : [ 0.25 ],
					"gb.contact.onset::bonkDebounce" : [ 100 ],
					"gb.contact.onset::bonkMinVel" : [ 20.0 ],
					"gb.contact.onset::bonkSchmitTresh" : [ 13.725491, 45.098038 ]
				}

			}
,
			"17" : 			{
				"id" : 17,
				"data" : 				{
					"Brightness" : [ 66.929131 ],
					"Damping" : [ 66.515038 ],
					"Dry/Wet" : [  ],
					"ExcitationLPosX" : [ 59.0 ],
					"ExcitationLPosY" : [ 44.0 ],
					"ExcitationRPosX" : [ 73.0 ],
					"ExcitationRPosY" : [ 51.0 ],
					"ExcitationRandEnable" : [ 1.0 ],
					"ExcitationRandRate" : [ 2500.0 ],
					"ExcitationSmooth" : [ 1000.0 ],
					"Modes" : [ 86.0 ],
					"PickupLPosX" : [ 30.0 ],
					"PickupLPosX[1]" : [ 13.0 ],
					"PickupLPosY" : [ 30.0 ],
					"PickupLPosY[1]" : [ 30.0 ],
					"PickupRPosX" : [ 20.0 ],
					"PickupRPosX[1]" : [ 10.0 ],
					"PickupRPosY" : [ 10.0 ],
					"PickupRPosY[1]" : [ 20.0 ],
					"PickupRandEnable" : [ 1.0 ],
					"PickupRandRate" : [ 1200.0 ],
					"PickupSmooth" : [ 900.0 ],
					"Resonator" : [ 0.0 ],
					"StringPitch" : [  ],
					"on" : [ 0 ],
					"pRangeMax" : [ 33 ],
					"pRangeMin" : [ 73 ],
					"ramp" : [ 10000 ],
					"thresh" : [ 0.1 ],
					"gb.contact.onset::bonkDebounce" : [  ],
					"gb.contact.onset::bonkMinVel" : [ 30.0 ],
					"gb.contact.onset::bonkSchmitTresh" : [ 7.843137, 43.137257 ]
				}

			}
,
			"18" : 			{
				"id" : 18,
				"data" : 				{
					"Brightness" : [ 55.90551 ],
					"Damping" : [ 39.726517 ],
					"Dry/Wet" : [  ],
					"ExcitationLPosX" : [ 56.0 ],
					"ExcitationLPosY" : [ 93.0 ],
					"ExcitationRPosX" : [ 53.0 ],
					"ExcitationRPosY" : [ 97.0 ],
					"ExcitationRandEnable" : [ 1.0 ],
					"ExcitationRandRate" : [ 4600.0 ],
					"ExcitationSmooth" : [ 1000.0 ],
					"Modes" : [ 86.0 ],
					"PickupLPosX" : [ 52.0 ],
					"PickupLPosX[1]" : [ 13.0 ],
					"PickupLPosY" : [ 61.0 ],
					"PickupLPosY[1]" : [ 52.0 ],
					"PickupRPosX" : [ 18.0 ],
					"PickupRPosX[1]" : [ 33.0 ],
					"PickupRPosY" : [ 33.0 ],
					"PickupRPosY[1]" : [ 18.0 ],
					"PickupRandEnable" : [ 1.0 ],
					"PickupRandRate" : [ 2300.0 ],
					"PickupSmooth" : [ 1350.0 ],
					"Resonator" : [ 8.0 ],
					"StringPitch" : [  ],
					"on" : [ 0 ],
					"pRangeMax" : [ 33 ],
					"pRangeMin" : [ 73 ],
					"ramp" : [ 10000 ],
					"thresh" : [ 0.2 ],
					"gb.contact.onset::bonkDebounce" : [  ],
					"gb.contact.onset::bonkMinVel" : [ 16.0 ],
					"gb.contact.onset::bonkSchmitTresh" : [ 7.843137, 43.137257 ]
				}

			}
,
			"19" : 			{
				"id" : 19,
				"data" : 				{
					"Brightness" : [ 70.866142 ],
					"Damping" : [ 62.0 ],
					"Dry/Wet" : [  ],
					"ExcitationLPosX" : [ 47.0 ],
					"ExcitationLPosY" : [ 44.0 ],
					"ExcitationRPosX" : [ 46.0 ],
					"ExcitationRPosY" : [ 51.0 ],
					"ExcitationRandEnable" : [ 1.0 ],
					"ExcitationRandRate" : [ 2500.0 ],
					"ExcitationSmooth" : [ 1000.0 ],
					"Modes" : [ 86.0 ],
					"PickupLPosX" : [ 6.0 ],
					"PickupLPosX[1]" : [ 13.0 ],
					"PickupLPosY" : [ 30.0 ],
					"PickupLPosY[1]" : [ 6.0 ],
					"PickupRPosX" : [ 46.0 ],
					"PickupRPosX[1]" : [ 10.0 ],
					"PickupRPosY" : [ 10.0 ],
					"PickupRPosY[1]" : [ 46.0 ],
					"PickupRandEnable" : [ 1.0 ],
					"PickupRandRate" : [ 1200.0 ],
					"PickupSmooth" : [ 900.0 ],
					"Resonator" : [ 0.0 ],
					"StringPitch" : [  ],
					"on" : [ 0 ],
					"pRangeMax" : [ 33 ],
					"pRangeMin" : [ 73 ],
					"ramp" : [ 10000 ],
					"thresh" : [ 0.22 ],
					"gb.contact.onset::bonkDebounce" : [  ],
					"gb.contact.onset::bonkMinVel" : [ 15.0 ],
					"gb.contact.onset::bonkSchmitTresh" : [ 7.843137, 43.137257 ]
				}

			}
,
			"25" : 			{
				"id" : 25,
				"data" : 				{
					"Brightness" : [ 66.929131 ],
					"Damping" : [ 66.515038 ],
					"Dry/Wet" : [ 66.0 ],
					"ExcitationLPosX" : [ 59.0 ],
					"ExcitationLPosY" : [ 44.0 ],
					"ExcitationRPosX" : [ 73.0 ],
					"ExcitationRPosY" : [ 51.0 ],
					"ExcitationRandEnable" : [ 0.0 ],
					"ExcitationRandRate" : [ 2500.0 ],
					"ExcitationSmooth" : [ 1000.0 ],
					"Modes" : [ 86.0 ],
					"PickupLPosX" : [ 30.0 ],
					"PickupLPosX[1]" : [ 13.0 ],
					"PickupLPosY" : [ 30.0 ],
					"PickupLPosY[1]" : [ 30.0 ],
					"PickupRPosX" : [ 20.0 ],
					"PickupRPosX[1]" : [ 10.0 ],
					"PickupRPosY" : [ 10.0 ],
					"PickupRPosY[1]" : [ 20.0 ],
					"PickupRandEnable" : [ 1.0 ],
					"PickupRandRate" : [ 1200.0 ],
					"PickupSmooth" : [ 900.0 ],
					"Resonator" : [ 0.0 ],
					"StringPitch" : [ 48.0 ],
					"on" : [ 0 ],
					"pRangeMax" : [ 30 ],
					"pRangeMin" : [ 37 ],
					"ramp" : [ 10000 ],
					"thresh" : [ 0.26 ],
					"gb.contact.onset::bonkDebounce" : [  ],
					"gb.contact.onset::bonkMinVel" : [ 18.0 ],
					"gb.contact.onset::bonkSchmitTresh" : [ 9.803922, 60.784313 ]
				}

			}

		}

	}

}
