0 0 0
0.045455001294612884521484375000000 1 2
0.068181999027729034423828125000000 2 3
0.81818199157714843750000000000000 3 36
0.84090900421142578125000000000000 4 37
0.86363601684570312500000000000000 5 38
