735184.00000000000000000000000000 2895178.0000000000000000000000000 719338.00000000000000000000000000
829759.00000000000000000000000000 2564876.0000000000000000000000000 889995.00000000000000000000000000
2209214.0000000000000000000000000 2218174.0000000000000000000000000 1112993.0000000000000000000000000
2388722.0000000000000000000000000 617964.00000000000000000000000000 588771.00000000000000000000000000
3046324.0000000000000000000000000 1463344.0000000000000000000000000 1529989.0000000000000000000000000
3310876.0000000000000000000000000 3224193.0000000000000000000000000 788975.00000000000000000000000000
2317629.0000000000000000000000000 4127807.0000000000000000000000000 2289873.0000000000000000000000000
110675.00000000000000000000000000 1708340.0000000000000000000000000 123012.00000000000000000000000000
154468.00000000000000000000000000 1691578.0000000000000000000000000 123907.00000000000000000000000000
108627.00000000000000000000000000 1670712.0000000000000000000000000 125131.00000000000000000000000000
2024256.0000000000000000000000000 2070960.0000000000000000000000000 516934.00000000000000000000000000
2896228.0000000000000000000000000 2891105.0000000000000000000000000 270203.00000000000000000000000000
2007675.0000000000000000000000000 2017695.0000000000000000000000000 196452.00000000000000000000000000
1714224.0000000000000000000000000 1648188.0000000000000000000000000 386787.00000000000000000000000000
1187048.0000000000000000000000000 2127625.0000000000000000000000000 1153106.0000000000000000000000000
953431.00000000000000000000000000 2427958.0000000000000000000000000 2390517.0000000000000000000000000
1891077.0000000000000000000000000 2680159.0000000000000000000000000 2724426.0000000000000000000000000
2352351.0000000000000000000000000 3080482.0000000000000000000000000 2380725.0000000000000000000000000
1987604.0000000000000000000000000 1994107.0000000000000000000000000 263292.00000000000000000000000000
1443475.0000000000000000000000000 1433923.0000000000000000000000000 1001061.0000000000000000000000000
1093227.0000000000000000000000000 1759237.0000000000000000000000000 1053825.0000000000000000000000000
1053471.0000000000000000000000000 1783140.0000000000000000000000000 1055649.0000000000000000000000000
1055858.0000000000000000000000000 1801401.0000000000000000000000000 1052738.0000000000000000000000000
831379.00000000000000000000000000 2972932.0000000000000000000000000 836739.00000000000000000000000000
1465062.0000000000000000000000000 1472974.0000000000000000000000000 1131547.0000000000000000000000000
1860767.0000000000000000000000000 644120.00000000000000000000000000 610919.00000000000000000000000000
1355593.0000000000000000000000000 1186018.0000000000000000000000000 1347870.0000000000000000000000000
1309304.0000000000000000000000000 1274109.0000000000000000000000000 1380810.0000000000000000000000000
1251237.0000000000000000000000000 1367244.0000000000000000000000000 1378488.0000000000000000000000000
1242890.0000000000000000000000000 1443097.0000000000000000000000000 1419767.0000000000000000000000000
1245567.0000000000000000000000000 1459598.0000000000000000000000000 1459666.0000000000000000000000000
1375230.0000000000000000000000000 1711958.0000000000000000000000000 1689440.0000000000000000000000000
1041014.0000000000000000000000000 2851307.0000000000000000000000000 2857905.0000000000000000000000000
3117195.0000000000000000000000000 4092985.0000000000000000000000000 3138089.0000000000000000000000000
4077304.0000000000000000000000000 4097404.0000000000000000000000000 2704177.0000000000000000000000000
3146780.0000000000000000000000000 3112106.0000000000000000000000000 332887.00000000000000000000000000
2622214.0000000000000000000000000 2756030.0000000000000000000000000 1028966.0000000000000000000000000
2434159.0000000000000000000000000 2418772.0000000000000000000000000 60594.000000000000000000000000000
3323964.0000000000000000000000000 3405539.0000000000000000000000000 523141.00000000000000000000000000
3784377.0000000000000000000000000 3565300.0000000000000000000000000 3564625.0000000000000000000000000
3863542.0000000000000000000000000 3468188.0000000000000000000000000 3809604.0000000000000000000000000
3892095.0000000000000000000000000 3407987.0000000000000000000000000 3913987.0000000000000000000000000
3986035.0000000000000000000000000 3390448.0000000000000000000000000 3970405.0000000000000000000000000
3277442.0000000000000000000000000 2291553.0000000000000000000000000 3373162.0000000000000000000000000
