{
	"name" : "Dual_MIDI",
	"typeID" : "MIDI_MONO",
	"type" : 1,
	"size" : 887,
	"data" : [ 		{
			"state" : 0,
			"time" : [ 0, 0 ],
			"seg" : [ 0, 0 ],
			"note" : [ 60, 0, 128 ]
		}
, 		{
			"state" : 1,
			"time" : [ 13187, 46 ],
			"seg" : [ 1, 3 ],
			"note" : [ 114, 51, 128 ]
		}
, 		{
			"state" : 2,
			"time" : [ 21360, 43 ],
			"seg" : [ 2, 4 ],
			"note" : [ 115, 54, 128 ]
		}
, 		{
			"state" : 3,
			"time" : [ 40226, 37 ],
			"seg" : [ 3, 5 ],
			"note" : [ 114, 21, 128 ]
		}
, 		{
			"state" : 4,
			"time" : [ 71339, 23 ],
			"seg" : [ 4, 7 ],
			"note" : [ 44, 44, 128 ]
		}
, 		{
			"state" : 5,
			"time" : [ 72580, 32 ],
			"seg" : [ 4, 7 ],
			"note" : [ 44, 52, 128 ]
		}
, 		{
			"state" : 6,
			"time" : [ 73829, 59 ],
			"seg" : [ 4, 7 ],
			"note" : [ 44, 61, 128 ]
		}
, 		{
			"state" : 7,
			"time" : [ 74375, 57 ],
			"seg" : [ 4, 7 ],
			"note" : [ 44, 59, 128 ]
		}
, 		{
			"state" : 8,
			"time" : [ 75139, 32 ],
			"seg" : [ 4, 7 ],
			"note" : [ 44, 54, 128 ]
		}
, 		{
			"state" : 9,
			"time" : [ 75769, 63 ],
			"seg" : [ 4, 7 ],
			"note" : [ 44, 50, 128 ]
		}
, 		{
			"state" : 10,
			"time" : [ 77014, 41 ],
			"seg" : [ 4, 7 ],
			"note" : [ 44, 42, 128 ]
		}
, 		{
			"state" : 11,
			"time" : [ 78028, 47 ],
			"seg" : [ 4, 7 ],
			"note" : [ 44, 39, 128 ]
		}
, 		{
			"state" : 12,
			"time" : [ 83123, 35 ],
			"seg" : [ 5, 8 ],
			"note" : [ 89, 29, 128 ]
		}
, 		{
			"state" : 13,
			"time" : [ 119292, 40 ],
			"seg" : [ 6, 9 ],
			"note" : [ 44, 36, 128 ]
		}
, 		{
			"state" : 14,
			"time" : [ 134734, 41 ],
			"seg" : [ 7, 10 ],
			"note" : [ 114, 26, 128 ]
		}
, 		{
			"state" : 15,
			"time" : [ 153111, 17 ],
			"seg" : [ 8, 11 ],
			"note" : [ 90, 30, 128 ]
		}
, 		{
			"state" : 16,
			"time" : [ 187091, 41 ],
			"seg" : [ 9, 12 ],
			"note" : [ 114, 23, 128 ]
		}
, 		{
			"state" : 17,
			"time" : [ 187132, 44 ],
			"seg" : [ 9, 12 ],
			"note" : [ 115, 31, 128 ]
		}
, 		{
			"state" : 18,
			"time" : [ 215157, 86 ],
			"seg" : [ 10, 13 ],
			"note" : [ 49, 63, 128 ]
		}
, 		{
			"state" : 19,
			"time" : [ 215243, 74 ],
			"seg" : [ 10, 13 ],
			"note" : [ 53, 55, 128 ]
		}
, 		{
			"state" : 20,
			"time" : [ 215464, 37 ],
			"seg" : [ 10, 13 ],
			"note" : [ 49, 46, 128 ]
		}
, 		{
			"state" : 21,
			"time" : [ 215501, 42 ],
			"seg" : [ 10, 13 ],
			"note" : [ 50, 49, 128 ]
		}
, 		{
			"state" : 22,
			"time" : [ 217170, 37 ],
			"seg" : [ 10, 13 ],
			"note" : [ 54, 50, 128 ]
		}
, 		{
			"state" : 23,
			"time" : [ 217655, 94 ],
			"seg" : [ 10, 13 ],
			"note" : [ 51, 27, 128 ]
		}
, 		{
			"state" : 24,
			"time" : [ 217933, 68 ],
			"seg" : [ 10, 13 ],
			"note" : [ 49, 22, 128 ]
		}
, 		{
			"state" : 25,
			"time" : [ 220122, 135 ],
			"seg" : [ 10, 14 ],
			"note" : [ 48, 51, 128 ]
		}
, 		{
			"state" : 26,
			"time" : [ 220257, 111 ],
			"seg" : [ 10, 14 ],
			"note" : [ 53, 62, 128 ]
		}
, 		{
			"state" : 27,
			"time" : [ 221012, 110 ],
			"seg" : [ 10, 14 ],
			"note" : [ 46, 45, 128 ]
		}
, 		{
			"state" : 28,
			"time" : [ 222574, 43 ],
			"seg" : [ 10, 14 ],
			"note" : [ 45, 33, 128 ]
		}
, 		{
			"state" : 29,
			"time" : [ 222617, 29 ],
			"seg" : [ 10, 14 ],
			"note" : [ 46, 34, 128 ]
		}
, 		{
			"state" : 30,
			"time" : [ 222646, 55 ],
			"seg" : [ 10, 14 ],
			"note" : [ 47, 31, 128 ]
		}
, 		{
			"state" : 31,
			"time" : [ 226586, 110 ],
			"seg" : [ 11, 15 ],
			"note" : [ 45, 15, 128 ]
		}
, 		{
			"state" : 32,
			"time" : [ 228264, 96 ],
			"seg" : [ 11, 15 ],
			"note" : [ 46, 41, 128 ]
		}
, 		{
			"state" : 33,
			"time" : [ 228403, 105 ],
			"seg" : [ 11, 15 ],
			"note" : [ 48, 39, 128 ]
		}
, 		{
			"state" : 34,
			"time" : [ 228686, 174 ],
			"seg" : [ 11, 15 ],
			"note" : [ 46, 40, 128 ]
		}
, 		{
			"state" : 35,
			"time" : [ 229034, 101 ],
			"seg" : [ 11, 15 ],
			"note" : [ 47, 43, 128 ]
		}
, 		{
			"state" : 36,
			"time" : [ 229135, 135 ],
			"seg" : [ 11, 15 ],
			"note" : [ 48, 34, 128 ]
		}
, 		{
			"state" : 37,
			"time" : [ 229579, 55 ],
			"seg" : [ 11, 15 ],
			"note" : [ 45, 23, 128 ]
		}
, 		{
			"state" : 38,
			"time" : [ 229634, 51 ],
			"seg" : [ 11, 15 ],
			"note" : [ 44, 27, 128 ]
		}
, 		{
			"state" : 39,
			"time" : [ 231760, 55 ],
			"seg" : [ 11, 16 ],
			"note" : [ 49, 34, 128 ]
		}
, 		{
			"state" : 40,
			"time" : [ 231815, 129 ],
			"seg" : [ 11, 16 ],
			"note" : [ 48, 31, 128 ]
		}
, 		{
			"state" : 41,
			"time" : [ 232100, 151 ],
			"seg" : [ 11, 16 ],
			"note" : [ 50, 42, 128 ]
		}
, 		{
			"state" : 42,
			"time" : [ 232363, 96 ],
			"seg" : [ 11, 16 ],
			"note" : [ 51, 40, 128 ]
		}
, 		{
			"state" : 43,
			"time" : [ 232459, 64 ],
			"seg" : [ 11, 16 ],
			"note" : [ 52, 36, 128 ]
		}
, 		{
			"state" : 44,
			"time" : [ 232566, 82 ],
			"seg" : [ 11, 16 ],
			"note" : [ 52, 45, 128 ]
		}
, 		{
			"state" : 45,
			"time" : [ 232843, 112 ],
			"seg" : [ 11, 16 ],
			"note" : [ 51, 48, 128 ]
		}
, 		{
			"state" : 46,
			"time" : [ 233037, 64 ],
			"seg" : [ 11, 16 ],
			"note" : [ 47, 30, 128 ]
		}
, 		{
			"state" : 47,
			"time" : [ 233101, 56 ],
			"seg" : [ 11, 16 ],
			"note" : [ 46, 33, 128 ]
		}
, 		{
			"state" : 48,
			"time" : [ 233584, 72 ],
			"seg" : [ 11, 16 ],
			"note" : [ 44, 21, 128 ]
		}
, 		{
			"state" : 49,
			"time" : [ 233773, 47 ],
			"seg" : [ 11, 16 ],
			"note" : [ 47, 54, 128 ]
		}
, 		{
			"state" : 50,
			"time" : [ 233820, 95 ],
			"seg" : [ 11, 16 ],
			"note" : [ 48, 61, 128 ]
		}
, 		{
			"state" : 51,
			"time" : [ 234067, 54 ],
			"seg" : [ 11, 16 ],
			"note" : [ 46, 36, 128 ]
		}
, 		{
			"state" : 52,
			"time" : [ 234242, 90 ],
			"seg" : [ 11, 16 ],
			"note" : [ 45, 23, 128 ]
		}
, 		{
			"state" : 53,
			"time" : [ 237003, 39 ],
			"seg" : [ 11, 17 ],
			"note" : [ 44, 24, 128 ]
		}
, 		{
			"state" : 54,
			"time" : [ 238389, 40 ],
			"seg" : [ 11, 17 ],
			"note" : [ 44, 16, 128 ]
		}
, 		{
			"state" : 55,
			"time" : [ 239124, 43 ],
			"seg" : [ 11, 17 ],
			"note" : [ 46, 41, 128 ]
		}
, 		{
			"state" : 56,
			"time" : [ 239167, 64 ],
			"seg" : [ 11, 17 ],
			"note" : [ 45, 43, 128 ]
		}
, 		{
			"state" : 57,
			"time" : [ 239231, 138 ],
			"seg" : [ 11, 17 ],
			"note" : [ 46, 46, 128 ]
		}
, 		{
			"state" : 58,
			"time" : [ 239369, 181 ],
			"seg" : [ 11, 17 ],
			"note" : [ 45, 45, 128 ]
		}
, 		{
			"state" : 59,
			"time" : [ 239732, 69 ],
			"seg" : [ 11, 17 ],
			"note" : [ 45, 27, 128 ]
		}
, 		{
			"state" : 60,
			"time" : [ 239801, 146 ],
			"seg" : [ 11, 17 ],
			"note" : [ 44, 32, 128 ]
		}
, 		{
			"state" : 61,
			"time" : [ 242529, 42 ],
			"seg" : [ 11, 18 ],
			"note" : [ 47, 17, 128 ]
		}
, 		{
			"state" : 62,
			"time" : [ 242571, 39 ],
			"seg" : [ 11, 18 ],
			"note" : [ 48, 18, 128 ]
		}
, 		{
			"state" : 63,
			"time" : [ 243290, 98 ],
			"seg" : [ 11, 18 ],
			"note" : [ 50, 28, 128 ]
		}
, 		{
			"state" : 64,
			"time" : [ 243388, 27 ],
			"seg" : [ 11, 18 ],
			"note" : [ 49, 27, 128 ]
		}
, 		{
			"state" : 65,
			"time" : [ 243588, 131 ],
			"seg" : [ 11, 18 ],
			"note" : [ 47, 26, 128 ]
		}
, 		{
			"state" : 66,
			"time" : [ 244458, 103 ],
			"seg" : [ 11, 18 ],
			"note" : [ 47, 28, 128 ]
		}
, 		{
			"state" : 67,
			"time" : [ 244739, 51 ],
			"seg" : [ 11, 18 ],
			"note" : [ 47, 31, 128 ]
		}
, 		{
			"state" : 68,
			"time" : [ 244790, 238 ],
			"seg" : [ 11, 18 ],
			"note" : [ 46, 24, 128 ]
		}
, 		{
			"state" : 69,
			"time" : [ 245236, 49 ],
			"seg" : [ 11, 18 ],
			"note" : [ 45, 24, 128 ]
		}
, 		{
			"state" : 70,
			"time" : [ 245297, 351 ],
			"seg" : [ 11, 18 ],
			"note" : [ 45, 23, 128 ]
		}
, 		{
			"state" : 71,
			"time" : [ 245648, 35 ],
			"seg" : [ 11, 18 ],
			"note" : [ 44, 32, 128 ]
		}
, 		{
			"state" : 72,
			"time" : [ 248956, 60 ],
			"seg" : [ 12, 19 ],
			"note" : [ 45, 26, 128 ]
		}
, 		{
			"state" : 73,
			"time" : [ 249016, 73 ],
			"seg" : [ 12, 19 ],
			"note" : [ 44, 23, 128 ]
		}
, 		{
			"state" : 74,
			"time" : [ 249089, 93 ],
			"seg" : [ 12, 19 ],
			"note" : [ 45, 31, 128 ]
		}
, 		{
			"state" : 75,
			"time" : [ 249182, 44 ],
			"seg" : [ 12, 19 ],
			"note" : [ 44, 32, 128 ]
		}
, 		{
			"state" : 76,
			"time" : [ 250505, 66 ],
			"seg" : [ 12, 19 ],
			"note" : [ 49, 29, 128 ]
		}
, 		{
			"state" : 77,
			"time" : [ 250571, 71 ],
			"seg" : [ 12, 19 ],
			"note" : [ 48, 33, 128 ]
		}
, 		{
			"state" : 78,
			"time" : [ 251421, 35 ],
			"seg" : [ 12, 19 ],
			"note" : [ 48, 36, 128 ]
		}
, 		{
			"state" : 79,
			"time" : [ 251645, 20 ],
			"seg" : [ 12, 19 ],
			"note" : [ 47, 29, 128 ]
		}
, 		{
			"state" : 80,
			"time" : [ 251792, 79 ],
			"seg" : [ 12, 19 ],
			"note" : [ 48, 43, 128 ]
		}
, 		{
			"state" : 81,
			"time" : [ 252179, 117 ],
			"seg" : [ 12, 19 ],
			"note" : [ 45, 30, 128 ]
		}
, 		{
			"state" : 82,
			"time" : [ 252346, 180 ],
			"seg" : [ 12, 19 ],
			"note" : [ 45, 22, 128 ]
		}
, 		{
			"state" : 83,
			"time" : [ 252644, 85 ],
			"seg" : [ 12, 19 ],
			"note" : [ 44, 24, 128 ]
		}
, 		{
			"state" : 84,
			"time" : [ 253462, 84 ],
			"seg" : [ 12, 19 ],
			"note" : [ 44, 22, 128 ]
		}
, 		{
			"state" : 85,
			"time" : [ 253676, 58 ],
			"seg" : [ 12, 19 ],
			"note" : [ 45, 24, 128 ]
		}
, 		{
			"state" : 86,
			"time" : [ 253935, 102 ],
			"seg" : [ 12, 19 ],
			"note" : [ 44, 24, 128 ]
		}
, 		{
			"state" : 87,
			"time" : [ 254390, 55 ],
			"seg" : [ 12, 19 ],
			"note" : [ 48, 48, 128 ]
		}
, 		{
			"state" : 88,
			"time" : [ 254445, 67 ],
			"seg" : [ 12, 19 ],
			"note" : [ 49, 56, 128 ]
		}
, 		{
			"state" : 89,
			"time" : [ 255142, 46 ],
			"seg" : [ 12, 19 ],
			"note" : [ 45, 23, 128 ]
		}
, 		{
			"state" : 90,
			"time" : [ 255188, 34 ],
			"seg" : [ 12, 19 ],
			"note" : [ 44, 21, 128 ]
		}
, 		{
			"state" : 91,
			"time" : [ 255222, 40 ],
			"seg" : [ 12, 19 ],
			"note" : [ 45, 26, 128 ]
		}
, 		{
			"state" : 92,
			"time" : [ 255262, 37 ],
			"seg" : [ 12, 19 ],
			"note" : [ 44, 26, 128 ]
		}
, 		{
			"state" : 93,
			"time" : [ 255342, 50 ],
			"seg" : [ 12, 19 ],
			"note" : [ 44, 26, 128 ]
		}
, 		{
			"state" : 94,
			"time" : [ 256123, 33 ],
			"seg" : [ 12, 19 ],
			"note" : [ 45, 35, 128 ]
		}
, 		{
			"state" : 95,
			"time" : [ 256156, 43 ],
			"seg" : [ 12, 19 ],
			"note" : [ 44, 33, 128 ]
		}
, 		{
			"state" : 96,
			"time" : [ 256342, 52 ],
			"seg" : [ 12, 19 ],
			"note" : [ 46, 33, 128 ]
		}
, 		{
			"state" : 97,
			"time" : [ 256518, 57 ],
			"seg" : [ 12, 19 ],
			"note" : [ 44, 33, 128 ]
		}
, 		{
			"state" : 98,
			"time" : [ 256987, 72 ],
			"seg" : [ 12, 19 ],
			"note" : [ 44, 15, 128 ]
		}
, 		{
			"state" : 99,
			"time" : [ 257237, 116 ],
			"seg" : [ 12, 19 ],
			"note" : [ 44, 22, 128 ]
		}
, 		{
			"state" : 100,
			"time" : [ 259154, 49 ],
			"seg" : [ 12, 19 ],
			"note" : [ 46, 46, 128 ]
		}
, 		{
			"state" : 101,
			"time" : [ 259203, 85 ],
			"seg" : [ 12, 19 ],
			"note" : [ 45, 35, 128 ]
		}
, 		{
			"state" : 102,
			"time" : [ 259288, 185 ],
			"seg" : [ 12, 19 ],
			"note" : [ 46, 50, 128 ]
		}
, 		{
			"state" : 103,
			"time" : [ 259670, 281 ],
			"seg" : [ 12, 19 ],
			"note" : [ 46, 48, 128 ]
		}
, 		{
			"state" : 104,
			"time" : [ 259951, 43 ],
			"seg" : [ 12, 19 ],
			"note" : [ 45, 52, 128 ]
		}
, 		{
			"state" : 105,
			"time" : [ 260149, 64 ],
			"seg" : [ 12, 19 ],
			"note" : [ 45, 49, 128 ]
		}
, 		{
			"state" : 106,
			"time" : [ 260213, 64 ],
			"seg" : [ 12, 19 ],
			"note" : [ 44, 47, 128 ]
		}
, 		{
			"state" : 107,
			"time" : [ 260590, 56 ],
			"seg" : [ 12, 19 ],
			"note" : [ 44, 52, 128 ]
		}
, 		{
			"state" : 108,
			"time" : [ 260794, 10 ],
			"seg" : [ 12, 19 ],
			"note" : [ 45, 54, 128 ]
		}
, 		{
			"state" : 109,
			"time" : [ 260905, 742 ],
			"seg" : [ 12, 19 ],
			"note" : [ 82, 49, 128 ]
		}
, 		{
			"state" : 110,
			"time" : [ 261738, 166 ],
			"seg" : [ 12, 19 ],
			"note" : [ 82, 35, 128 ]
		}
, 		{
			"state" : 111,
			"time" : [ 262003, 93 ],
			"seg" : [ 12, 19 ],
			"note" : [ 44, 40, 128 ]
		}
, 		{
			"state" : 112,
			"time" : [ 262096, 61 ],
			"seg" : [ 12, 19 ],
			"note" : [ 82, 39, 128 ]
		}
, 		{
			"state" : 113,
			"time" : [ 262157, 67 ],
			"seg" : [ 12, 19 ],
			"note" : [ 70, 40, 128 ]
		}
, 		{
			"state" : 114,
			"time" : [ 262224, 98 ],
			"seg" : [ 12, 19 ],
			"note" : [ 82, 35, 128 ]
		}
, 		{
			"state" : 115,
			"time" : [ 262322, 321 ],
			"seg" : [ 12, 19 ],
			"note" : [ 46, 48, 128 ]
		}
, 		{
			"state" : 116,
			"time" : [ 262643, 301 ],
			"seg" : [ 12, 19 ],
			"note" : [ 82, 38, 128 ]
		}
, 		{
			"state" : 117,
			"time" : [ 263240, 140 ],
			"seg" : [ 12, 19 ],
			"note" : [ 45, 30, 128 ]
		}
, 		{
			"state" : 118,
			"time" : [ 264012, 125 ],
			"seg" : [ 12, 19 ],
			"note" : [ 52, 57, 128 ]
		}
, 		{
			"state" : 119,
			"time" : [ 264258, 99 ],
			"seg" : [ 12, 19 ],
			"note" : [ 47, 53, 128 ]
		}
, 		{
			"state" : 120,
			"time" : [ 265155, 260 ],
			"seg" : [ 12, 19 ],
			"note" : [ 49, 29, 128 ]
		}
, 		{
			"state" : 121,
			"time" : [ 265415, 55 ],
			"seg" : [ 12, 19 ],
			"note" : [ 53, 52, 128 ]
		}
, 		{
			"state" : 122,
			"time" : [ 265988, 82 ],
			"seg" : [ 12, 19 ],
			"note" : [ 52, 45, 128 ]
		}
, 		{
			"state" : 123,
			"time" : [ 266070, 35 ],
			"seg" : [ 12, 19 ],
			"note" : [ 54, 52, 128 ]
		}
, 		{
			"state" : 124,
			"time" : [ 266105, 53 ],
			"seg" : [ 12, 19 ],
			"note" : [ 53, 38, 128 ]
		}
, 		{
			"state" : 125,
			"time" : [ 266158, 103 ],
			"seg" : [ 12, 19 ],
			"note" : [ 52, 40, 128 ]
		}
, 		{
			"state" : 126,
			"time" : [ 267165, 80 ],
			"seg" : [ 12, 19 ],
			"note" : [ 49, 39, 128 ]
		}
, 		{
			"state" : 127,
			"time" : [ 267245, 222 ],
			"seg" : [ 12, 19 ],
			"note" : [ 48, 34, 128 ]
		}
, 		{
			"state" : 128,
			"time" : [ 267580, 58 ],
			"seg" : [ 12, 19 ],
			"note" : [ 47, 33, 128 ]
		}
, 		{
			"state" : 129,
			"time" : [ 267638, 101 ],
			"seg" : [ 12, 19 ],
			"note" : [ 46, 32, 128 ]
		}
, 		{
			"state" : 130,
			"time" : [ 267739, 165 ],
			"seg" : [ 12, 19 ],
			"note" : [ 45, 29, 128 ]
		}
, 		{
			"state" : 131,
			"time" : [ 267904, 47 ],
			"seg" : [ 12, 19 ],
			"note" : [ 44, 35, 128 ]
		}
, 		{
			"state" : 132,
			"time" : [ 267951, 35 ],
			"seg" : [ 12, 19 ],
			"note" : [ 45, 34, 128 ]
		}
, 		{
			"state" : 133,
			"time" : [ 269029, 75 ],
			"seg" : [ 12, 19 ],
			"note" : [ 47, 31, 128 ]
		}
, 		{
			"state" : 134,
			"time" : [ 269161, 144 ],
			"seg" : [ 12, 19 ],
			"note" : [ 46, 28, 128 ]
		}
, 		{
			"state" : 135,
			"time" : [ 269474, 137 ],
			"seg" : [ 12, 19 ],
			"note" : [ 47, 37, 128 ]
		}
, 		{
			"state" : 136,
			"time" : [ 271137, 149 ],
			"seg" : [ 12, 19 ],
			"note" : [ 45, 37, 128 ]
		}
, 		{
			"state" : 137,
			"time" : [ 271286, 68 ],
			"seg" : [ 12, 19 ],
			"note" : [ 44, 32, 128 ]
		}
, 		{
			"state" : 138,
			"time" : [ 271419, 109 ],
			"seg" : [ 12, 19 ],
			"note" : [ 48, 49, 128 ]
		}
, 		{
			"state" : 139,
			"time" : [ 271617, 23 ],
			"seg" : [ 12, 19 ],
			"note" : [ 48, 47, 128 ]
		}
, 		{
			"state" : 140,
			"time" : [ 271640, 83 ],
			"seg" : [ 12, 19 ],
			"note" : [ 47, 45, 128 ]
		}
, 		{
			"state" : 141,
			"time" : [ 271723, 73 ],
			"seg" : [ 12, 19 ],
			"note" : [ 44, 46, 128 ]
		}
, 		{
			"state" : 142,
			"time" : [ 271796, 89 ],
			"seg" : [ 12, 19 ],
			"note" : [ 43, 41, 128 ]
		}
, 		{
			"state" : 143,
			"time" : [ 271885, 88 ],
			"seg" : [ 12, 19 ],
			"note" : [ 44, 45, 128 ]
		}
, 		{
			"state" : 144,
			"time" : [ 272246, 32 ],
			"seg" : [ 12, 19 ],
			"note" : [ 45, 41, 128 ]
		}
, 		{
			"state" : 145,
			"time" : [ 272424, 112 ],
			"seg" : [ 12, 19 ],
			"note" : [ 49, 35, 128 ]
		}
, 		{
			"state" : 146,
			"time" : [ 272766, 119 ],
			"seg" : [ 12, 19 ],
			"note" : [ 46, 49, 128 ]
		}
, 		{
			"state" : 147,
			"time" : [ 273491, 65 ],
			"seg" : [ 12, 19 ],
			"note" : [ 45, 30, 128 ]
		}
, 		{
			"state" : 148,
			"time" : [ 273913, 90 ],
			"seg" : [ 12, 19 ],
			"note" : [ 45, 37, 128 ]
		}
, 		{
			"state" : 149,
			"time" : [ 274003, 147 ],
			"seg" : [ 12, 19 ],
			"note" : [ 44, 37, 128 ]
		}
, 		{
			"state" : 150,
			"time" : [ 275121, 38 ],
			"seg" : [ 12, 19 ],
			"note" : [ 45, 27, 128 ]
		}
, 		{
			"state" : 151,
			"time" : [ 275159, 140 ],
			"seg" : [ 12, 19 ],
			"note" : [ 44, 25, 128 ]
		}
, 		{
			"state" : 152,
			"time" : [ 275575, 45 ],
			"seg" : [ 12, 19 ],
			"note" : [ 46, 39, 128 ]
		}
, 		{
			"state" : 153,
			"time" : [ 277434, 98 ],
			"seg" : [ 12, 19 ],
			"note" : [ 48, 38, 128 ]
		}
, 		{
			"state" : 154,
			"time" : [ 277621, 102 ],
			"seg" : [ 12, 19 ],
			"note" : [ 47, 37, 128 ]
		}
, 		{
			"state" : 155,
			"time" : [ 277757, 104 ],
			"seg" : [ 12, 19 ],
			"note" : [ 45, 20, 128 ]
		}
, 		{
			"state" : 156,
			"time" : [ 278209, 35 ],
			"seg" : [ 12, 19 ],
			"note" : [ 45, 31, 128 ]
		}
, 		{
			"state" : 157,
			"time" : [ 279090, 37 ],
			"seg" : [ 12, 19 ],
			"note" : [ 45, 22, 128 ]
		}
, 		{
			"state" : 158,
			"time" : [ 279127, 186 ],
			"seg" : [ 12, 19 ],
			"note" : [ 44, 22, 128 ]
		}
, 		{
			"state" : 159,
			"time" : [ 279436, 100 ],
			"seg" : [ 12, 19 ],
			"note" : [ 43, 19, 128 ]
		}
, 		{
			"state" : 160,
			"time" : [ 282605, 68 ],
			"seg" : [ 13, 20 ],
			"note" : [ 48, 39, 128 ]
		}
, 		{
			"state" : 161,
			"time" : [ 282748, 104 ],
			"seg" : [ 13, 20 ],
			"note" : [ 46, 36, 128 ]
		}
, 		{
			"state" : 162,
			"time" : [ 282852, 122 ],
			"seg" : [ 13, 20 ],
			"note" : [ 47, 43, 128 ]
		}
, 		{
			"state" : 163,
			"time" : [ 282974, 84 ],
			"seg" : [ 13, 20 ],
			"note" : [ 49, 35, 128 ]
		}
, 		{
			"state" : 164,
			"time" : [ 283272, 80 ],
			"seg" : [ 13, 20 ],
			"note" : [ 45, 26, 128 ]
		}
, 		{
			"state" : 165,
			"time" : [ 283352, 57 ],
			"seg" : [ 13, 20 ],
			"note" : [ 44, 19, 128 ]
		}
, 		{
			"state" : 166,
			"time" : [ 283761, 165 ],
			"seg" : [ 13, 20 ],
			"note" : [ 48, 55, 128 ]
		}
, 		{
			"state" : 167,
			"time" : [ 284216, 120 ],
			"seg" : [ 13, 20 ],
			"note" : [ 46, 44, 128 ]
		}
, 		{
			"state" : 168,
			"time" : [ 284336, 35 ],
			"seg" : [ 13, 20 ],
			"note" : [ 44, 24, 128 ]
		}
, 		{
			"state" : 169,
			"time" : [ 284417, 110 ],
			"seg" : [ 13, 20 ],
			"note" : [ 48, 51, 128 ]
		}
, 		{
			"state" : 170,
			"time" : [ 284593, 46 ],
			"seg" : [ 13, 20 ],
			"note" : [ 45, 37, 128 ]
		}
, 		{
			"state" : 171,
			"time" : [ 284639, 58 ],
			"seg" : [ 13, 20 ],
			"note" : [ 44, 35, 128 ]
		}
, 		{
			"state" : 172,
			"time" : [ 284697, 44 ],
			"seg" : [ 13, 20 ],
			"note" : [ 45, 47, 128 ]
		}
, 		{
			"state" : 173,
			"time" : [ 284931, 54 ],
			"seg" : [ 13, 20 ],
			"note" : [ 44, 48, 128 ]
		}
, 		{
			"state" : 174,
			"time" : [ 286610, 53 ],
			"seg" : [ 13, 20 ],
			"note" : [ 45, 59, 128 ]
		}
, 		{
			"state" : 175,
			"time" : [ 286879, 84 ],
			"seg" : [ 13, 20 ],
			"note" : [ 44, 45, 128 ]
		}
, 		{
			"state" : 176,
			"time" : [ 287019, 89 ],
			"seg" : [ 13, 20 ],
			"note" : [ 44, 47, 128 ]
		}
, 		{
			"state" : 177,
			"time" : [ 289430, 86 ],
			"seg" : [ 13, 21 ],
			"note" : [ 46, 51, 128 ]
		}
, 		{
			"state" : 178,
			"time" : [ 289923, 97 ],
			"seg" : [ 13, 21 ],
			"note" : [ 46, 41, 128 ]
		}
, 		{
			"state" : 179,
			"time" : [ 292007, 83 ],
			"seg" : [ 13, 21 ],
			"note" : [ 45, 19, 128 ]
		}
, 		{
			"state" : 180,
			"time" : [ 292090, 66 ],
			"seg" : [ 13, 21 ],
			"note" : [ 44, 12, 128 ]
		}
, 		{
			"state" : 181,
			"time" : [ 292709, 59 ],
			"seg" : [ 13, 21 ],
			"note" : [ 50, 43, 128 ]
		}
, 		{
			"state" : 182,
			"time" : [ 294346, 82 ],
			"seg" : [ 13, 21 ],
			"note" : [ 48, 35, 128 ]
		}
, 		{
			"state" : 183,
			"time" : [ 294428, 133 ],
			"seg" : [ 13, 21 ],
			"note" : [ 49, 38, 128 ]
		}
, 		{
			"state" : 184,
			"time" : [ 294561, 39 ],
			"seg" : [ 13, 21 ],
			"note" : [ 48, 43, 128 ]
		}
, 		{
			"state" : 185,
			"time" : [ 294600, 90 ],
			"seg" : [ 13, 21 ],
			"note" : [ 47, 36, 128 ]
		}
, 		{
			"state" : 186,
			"time" : [ 294865, 35 ],
			"seg" : [ 13, 21 ],
			"note" : [ 47, 31, 128 ]
		}
, 		{
			"state" : 187,
			"time" : [ 294900, 155 ],
			"seg" : [ 13, 21 ],
			"note" : [ 46, 26, 128 ]
		}
, 		{
			"state" : 188,
			"time" : [ 296887, 216 ],
			"seg" : [ 13, 21 ],
			"note" : [ 47, 17, 128 ]
		}
, 		{
			"state" : 189,
			"time" : [ 298012, 180 ],
			"seg" : [ 13, 21 ],
			"note" : [ 46, 12, 128 ]
		}
, 		{
			"state" : 190,
			"time" : [ 300488, 38 ],
			"seg" : [ 13, 22 ],
			"note" : [ 52, 26, 128 ]
		}
, 		{
			"state" : 191,
			"time" : [ 300526, 32 ],
			"seg" : [ 13, 22 ],
			"note" : [ 51, 25, 128 ]
		}
, 		{
			"state" : 192,
			"time" : [ 300558, 100 ],
			"seg" : [ 13, 22 ],
			"note" : [ 50, 24, 128 ]
		}
, 		{
			"state" : 193,
			"time" : [ 300658, 44 ],
			"seg" : [ 13, 22 ],
			"note" : [ 46, 27, 128 ]
		}
, 		{
			"state" : 194,
			"time" : [ 300702, 66 ],
			"seg" : [ 13, 22 ],
			"note" : [ 45, 25, 128 ]
		}
, 		{
			"state" : 195,
			"time" : [ 301696, 144 ],
			"seg" : [ 13, 22 ],
			"note" : [ 58, 61, 128 ]
		}
, 		{
			"state" : 196,
			"time" : [ 302152, 88 ],
			"seg" : [ 13, 22 ],
			"note" : [ 53, 46, 128 ]
		}
, 		{
			"state" : 197,
			"time" : [ 302240, 32 ],
			"seg" : [ 13, 22 ],
			"note" : [ 52, 55, 128 ]
		}
, 		{
			"state" : 198,
			"time" : [ 302272, 125 ],
			"seg" : [ 13, 22 ],
			"note" : [ 51, 53, 128 ]
		}
, 		{
			"state" : 199,
			"time" : [ 302744, 81 ],
			"seg" : [ 13, 22 ],
			"note" : [ 53, 47, 128 ]
		}
, 		{
			"state" : 200,
			"time" : [ 302969, 98 ],
			"seg" : [ 13, 22 ],
			"note" : [ 51, 57, 128 ]
		}
, 		{
			"state" : 201,
			"time" : [ 303067, 77 ],
			"seg" : [ 13, 22 ],
			"note" : [ 47, 34, 128 ]
		}
, 		{
			"state" : 202,
			"time" : [ 303144, 35 ],
			"seg" : [ 13, 22 ],
			"note" : [ 49, 37, 128 ]
		}
, 		{
			"state" : 203,
			"time" : [ 303179, 137 ],
			"seg" : [ 13, 22 ],
			"note" : [ 50, 46, 128 ]
		}
, 		{
			"state" : 204,
			"time" : [ 303316, 130 ],
			"seg" : [ 13, 22 ],
			"note" : [ 49, 50, 128 ]
		}
, 		{
			"state" : 205,
			"time" : [ 303446, 124 ],
			"seg" : [ 13, 22 ],
			"note" : [ 48, 49, 128 ]
		}
, 		{
			"state" : 206,
			"time" : [ 303570, 46 ],
			"seg" : [ 13, 22 ],
			"note" : [ 49, 52, 128 ]
		}
, 		{
			"state" : 207,
			"time" : [ 303616, 73 ],
			"seg" : [ 13, 22 ],
			"note" : [ 50, 46, 128 ]
		}
, 		{
			"state" : 208,
			"time" : [ 303689, 118 ],
			"seg" : [ 13, 22 ],
			"note" : [ 48, 56, 128 ]
		}
, 		{
			"state" : 209,
			"time" : [ 303807, 62 ],
			"seg" : [ 13, 22 ],
			"note" : [ 49, 48, 128 ]
		}
, 		{
			"state" : 210,
			"time" : [ 304040, 34 ],
			"seg" : [ 13, 22 ],
			"note" : [ 48, 47, 128 ]
		}
, 		{
			"state" : 211,
			"time" : [ 304074, 235 ],
			"seg" : [ 13, 22 ],
			"note" : [ 47, 45, 128 ]
		}
, 		{
			"state" : 212,
			"time" : [ 304967, 173 ],
			"seg" : [ 13, 22 ],
			"note" : [ 48, 43, 128 ]
		}
, 		{
			"state" : 213,
			"time" : [ 305140, 128 ],
			"seg" : [ 13, 22 ],
			"note" : [ 47, 49, 128 ]
		}
, 		{
			"state" : 214,
			"time" : [ 305268, 43 ],
			"seg" : [ 13, 22 ],
			"note" : [ 48, 21, 128 ]
		}
, 		{
			"state" : 215,
			"time" : [ 306259, 43 ],
			"seg" : [ 13, 22 ],
			"note" : [ 47, 48, 128 ]
		}
, 		{
			"state" : 216,
			"time" : [ 306302, 147 ],
			"seg" : [ 13, 22 ],
			"note" : [ 48, 46, 128 ]
		}
, 		{
			"state" : 217,
			"time" : [ 306449, 49 ],
			"seg" : [ 13, 22 ],
			"note" : [ 47, 44, 128 ]
		}
, 		{
			"state" : 218,
			"time" : [ 306498, 66 ],
			"seg" : [ 13, 22 ],
			"note" : [ 46, 42, 128 ]
		}
, 		{
			"state" : 219,
			"time" : [ 306564, 83 ],
			"seg" : [ 13, 22 ],
			"note" : [ 45, 38, 128 ]
		}
, 		{
			"state" : 220,
			"time" : [ 306647, 70 ],
			"seg" : [ 13, 22 ],
			"note" : [ 44, 38, 128 ]
		}
, 		{
			"state" : 221,
			"time" : [ 307283, 88 ],
			"seg" : [ 13, 22 ],
			"note" : [ 46, 42, 128 ]
		}
, 		{
			"state" : 222,
			"time" : [ 307776, 102 ],
			"seg" : [ 13, 22 ],
			"note" : [ 45, 36, 128 ]
		}
, 		{
			"state" : 223,
			"time" : [ 308252, 89 ],
			"seg" : [ 13, 22 ],
			"note" : [ 46, 43, 128 ]
		}
, 		{
			"state" : 224,
			"time" : [ 308742, 46 ],
			"seg" : [ 13, 22 ],
			"note" : [ 44, 36, 128 ]
		}
, 		{
			"state" : 225,
			"time" : [ 308788, 31 ],
			"seg" : [ 13, 22 ],
			"note" : [ 43, 36, 128 ]
		}
, 		{
			"state" : 226,
			"time" : [ 309050, 167 ],
			"seg" : [ 13, 22 ],
			"note" : [ 44, 19, 128 ]
		}
, 		{
			"state" : 227,
			"time" : [ 309217, 48 ],
			"seg" : [ 13, 22 ],
			"note" : [ 46, 37, 128 ]
		}
, 		{
			"state" : 228,
			"time" : [ 309265, 155 ],
			"seg" : [ 13, 22 ],
			"note" : [ 47, 41, 128 ]
		}
, 		{
			"state" : 229,
			"time" : [ 309420, 52 ],
			"seg" : [ 13, 22 ],
			"note" : [ 45, 41, 128 ]
		}
, 		{
			"state" : 230,
			"time" : [ 309472, 40 ],
			"seg" : [ 13, 22 ],
			"note" : [ 44, 41, 128 ]
		}
, 		{
			"state" : 231,
			"time" : [ 309794, 41 ],
			"seg" : [ 13, 22 ],
			"note" : [ 43, 42, 128 ]
		}
, 		{
			"state" : 232,
			"time" : [ 309835, 40 ],
			"seg" : [ 13, 22 ],
			"note" : [ 44, 37, 128 ]
		}
, 		{
			"state" : 233,
			"time" : [ 310731, 99 ],
			"seg" : [ 13, 22 ],
			"note" : [ 45, 35, 128 ]
		}
, 		{
			"state" : 234,
			"time" : [ 310830, 47 ],
			"seg" : [ 13, 22 ],
			"note" : [ 47, 24, 128 ]
		}
, 		{
			"state" : 235,
			"time" : [ 311540, 235 ],
			"seg" : [ 13, 22 ],
			"note" : [ 46, 52, 128 ]
		}
, 		{
			"state" : 236,
			"time" : [ 311775, 75 ],
			"seg" : [ 13, 22 ],
			"note" : [ 45, 43, 128 ]
		}
, 		{
			"state" : 237,
			"time" : [ 312064, 120 ],
			"seg" : [ 13, 22 ],
			"note" : [ 45, 50, 128 ]
		}
, 		{
			"state" : 238,
			"time" : [ 312362, 55 ],
			"seg" : [ 13, 22 ],
			"note" : [ 45, 39, 128 ]
		}
, 		{
			"state" : 239,
			"time" : [ 313251, 66 ],
			"seg" : [ 13, 22 ],
			"note" : [ 44, 40, 128 ]
		}
, 		{
			"state" : 240,
			"time" : [ 313317, 84 ],
			"seg" : [ 13, 22 ],
			"note" : [ 45, 52, 128 ]
		}
, 		{
			"state" : 241,
			"time" : [ 313510, 33 ],
			"seg" : [ 13, 22 ],
			"note" : [ 45, 44, 128 ]
		}
, 		{
			"state" : 242,
			"time" : [ 313914, 41 ],
			"seg" : [ 13, 22 ],
			"note" : [ 44, 40, 128 ]
		}
, 		{
			"state" : 243,
			"time" : [ 314296, 31 ],
			"seg" : [ 13, 22 ],
			"note" : [ 45, 40, 128 ]
		}
, 		{
			"state" : 244,
			"time" : [ 314327, 293 ],
			"seg" : [ 13, 22 ],
			"note" : [ 44, 41, 128 ]
		}
, 		{
			"state" : 245,
			"time" : [ 314769, 42 ],
			"seg" : [ 13, 22 ],
			"note" : [ 43, 35, 128 ]
		}
, 		{
			"state" : 246,
			"time" : [ 315012, 139 ],
			"seg" : [ 13, 22 ],
			"note" : [ 45, 24, 128 ]
		}
, 		{
			"state" : 247,
			"time" : [ 315251, 157 ],
			"seg" : [ 13, 22 ],
			"note" : [ 46, 30, 128 ]
		}
, 		{
			"state" : 248,
			"time" : [ 315625, 54 ],
			"seg" : [ 13, 22 ],
			"note" : [ 45, 51, 128 ]
		}
, 		{
			"state" : 249,
			"time" : [ 316116, 108 ],
			"seg" : [ 13, 22 ],
			"note" : [ 45, 44, 128 ]
		}
, 		{
			"state" : 250,
			"time" : [ 316336, 51 ],
			"seg" : [ 13, 22 ],
			"note" : [ 44, 32, 128 ]
		}
, 		{
			"state" : 251,
			"time" : [ 317035, 33 ],
			"seg" : [ 13, 22 ],
			"note" : [ 45, 43, 128 ]
		}
, 		{
			"state" : 252,
			"time" : [ 317068, 72 ],
			"seg" : [ 13, 22 ],
			"note" : [ 44, 42, 128 ]
		}
, 		{
			"state" : 253,
			"time" : [ 317967, 38 ],
			"seg" : [ 13, 22 ],
			"note" : [ 45, 49, 128 ]
		}
, 		{
			"state" : 254,
			"time" : [ 318458, 59 ],
			"seg" : [ 13, 22 ],
			"note" : [ 45, 48, 128 ]
		}
, 		{
			"state" : 255,
			"time" : [ 318517, 177 ],
			"seg" : [ 13, 22 ],
			"note" : [ 44, 52, 128 ]
		}
, 		{
			"state" : 256,
			"time" : [ 318796, 41 ],
			"seg" : [ 13, 22 ],
			"note" : [ 44, 44, 128 ]
		}
, 		{
			"state" : 257,
			"time" : [ 321911, 48 ],
			"seg" : [ 14, 23 ],
			"note" : [ 47, 19, 128 ]
		}
, 		{
			"state" : 258,
			"time" : [ 321959, 163 ],
			"seg" : [ 14, 23 ],
			"note" : [ 48, 23, 128 ]
		}
, 		{
			"state" : 259,
			"time" : [ 322122, 43 ],
			"seg" : [ 14, 23 ],
			"note" : [ 47, 27, 128 ]
		}
, 		{
			"state" : 260,
			"time" : [ 322165, 61 ],
			"seg" : [ 14, 23 ],
			"note" : [ 46, 27, 128 ]
		}
, 		{
			"state" : 261,
			"time" : [ 322665, 31 ],
			"seg" : [ 14, 23 ],
			"note" : [ 45, 10, 128 ]
		}
, 		{
			"state" : 262,
			"time" : [ 322696, 66 ],
			"seg" : [ 14, 23 ],
			"note" : [ 46, 22, 128 ]
		}
, 		{
			"state" : 263,
			"time" : [ 323102, 92 ],
			"seg" : [ 14, 23 ],
			"note" : [ 46, 33, 128 ]
		}
, 		{
			"state" : 264,
			"time" : [ 323194, 77 ],
			"seg" : [ 14, 23 ],
			"note" : [ 45, 36, 128 ]
		}
, 		{
			"state" : 265,
			"time" : [ 323271, 135 ],
			"seg" : [ 14, 23 ],
			"note" : [ 46, 36, 128 ]
		}
, 		{
			"state" : 266,
			"time" : [ 323406, 61 ],
			"seg" : [ 14, 23 ],
			"note" : [ 45, 17, 128 ]
		}
, 		{
			"state" : 267,
			"time" : [ 324066, 283 ],
			"seg" : [ 14, 23 ],
			"note" : [ 46, 18, 128 ]
		}
, 		{
			"state" : 268,
			"time" : [ 324526, 117 ],
			"seg" : [ 14, 23 ],
			"note" : [ 45, 21, 128 ]
		}
, 		{
			"state" : 269,
			"time" : [ 325084, 38 ],
			"seg" : [ 14, 23 ],
			"note" : [ 44, 15, 128 ]
		}
, 		{
			"state" : 270,
			"time" : [ 326393, 78 ],
			"seg" : [ 14, 23 ],
			"note" : [ 44, 11, 128 ]
		}
, 		{
			"state" : 271,
			"time" : [ 326848, 93 ],
			"seg" : [ 14, 23 ],
			"note" : [ 46, 39, 128 ]
		}
, 		{
			"state" : 272,
			"time" : [ 327171, 103 ],
			"seg" : [ 14, 23 ],
			"note" : [ 50, 20, 128 ]
		}
, 		{
			"state" : 273,
			"time" : [ 327616, 78 ],
			"seg" : [ 14, 23 ],
			"note" : [ 44, 31, 128 ]
		}
, 		{
			"state" : 274,
			"time" : [ 328341, 44 ],
			"seg" : [ 14, 23 ],
			"note" : [ 46, 46, 128 ]
		}
, 		{
			"state" : 275,
			"time" : [ 328385, 67 ],
			"seg" : [ 14, 23 ],
			"note" : [ 47, 52, 128 ]
		}
, 		{
			"state" : 276,
			"time" : [ 328586, 30 ],
			"seg" : [ 14, 23 ],
			"note" : [ 50, 55, 128 ]
		}
, 		{
			"state" : 277,
			"time" : [ 328616, 71 ],
			"seg" : [ 14, 23 ],
			"note" : [ 49, 55, 128 ]
		}
, 		{
			"state" : 278,
			"time" : [ 328777, 35 ],
			"seg" : [ 14, 23 ],
			"note" : [ 47, 58, 128 ]
		}
, 		{
			"state" : 279,
			"time" : [ 328812, 73 ],
			"seg" : [ 14, 23 ],
			"note" : [ 46, 59, 128 ]
		}
, 		{
			"state" : 280,
			"time" : [ 328885, 76 ],
			"seg" : [ 14, 23 ],
			"note" : [ 49, 49, 128 ]
		}
, 		{
			"state" : 281,
			"time" : [ 329842, 39 ],
			"seg" : [ 14, 23 ],
			"note" : [ 44, 18, 128 ]
		}
, 		{
			"state" : 282,
			"time" : [ 330361, 96 ],
			"seg" : [ 14, 23 ],
			"note" : [ 47, 21, 128 ]
		}
, 		{
			"state" : 283,
			"time" : [ 330707, 37 ],
			"seg" : [ 14, 23 ],
			"note" : [ 50, 60, 128 ]
		}
, 		{
			"state" : 284,
			"time" : [ 330744, 81 ],
			"seg" : [ 14, 23 ],
			"note" : [ 51, 62, 128 ]
		}
, 		{
			"state" : 285,
			"time" : [ 330825, 231 ],
			"seg" : [ 14, 23 ],
			"note" : [ 52, 53, 128 ]
		}
, 		{
			"state" : 286,
			"time" : [ 331056, 41 ],
			"seg" : [ 14, 23 ],
			"note" : [ 45, 41, 128 ]
		}
, 		{
			"state" : 287,
			"time" : [ 331097, 28 ],
			"seg" : [ 14, 23 ],
			"note" : [ 44, 40, 128 ]
		}
, 		{
			"state" : 288,
			"time" : [ 331408, 105 ],
			"seg" : [ 14, 23 ],
			"note" : [ 49, 21, 128 ]
		}
, 		{
			"state" : 289,
			"time" : [ 331513, 66 ],
			"seg" : [ 14, 23 ],
			"note" : [ 48, 34, 128 ]
		}
, 		{
			"state" : 290,
			"time" : [ 331579, 32 ],
			"seg" : [ 14, 23 ],
			"note" : [ 49, 32, 128 ]
		}
, 		{
			"state" : 291,
			"time" : [ 331611, 29 ],
			"seg" : [ 14, 23 ],
			"note" : [ 48, 23, 128 ]
		}
, 		{
			"state" : 292,
			"time" : [ 332242, 115 ],
			"seg" : [ 14, 23 ],
			"note" : [ 45, 19, 128 ]
		}
, 		{
			"state" : 293,
			"time" : [ 332549, 50 ],
			"seg" : [ 14, 23 ],
			"note" : [ 46, 18, 128 ]
		}
, 		{
			"state" : 294,
			"time" : [ 332599, 76 ],
			"seg" : [ 14, 23 ],
			"note" : [ 45, 20, 128 ]
		}
, 		{
			"state" : 295,
			"time" : [ 332675, 39 ],
			"seg" : [ 14, 23 ],
			"note" : [ 44, 16, 128 ]
		}
, 		{
			"state" : 296,
			"time" : [ 333031, 60 ],
			"seg" : [ 14, 23 ],
			"note" : [ 46, 12, 128 ]
		}
, 		{
			"state" : 297,
			"time" : [ 333709, 37 ],
			"seg" : [ 14, 23 ],
			"note" : [ 48, 37, 128 ]
		}
, 		{
			"state" : 298,
			"time" : [ 333823, 64 ],
			"seg" : [ 14, 23 ],
			"note" : [ 46, 24, 128 ]
		}
, 		{
			"state" : 299,
			"time" : [ 334037, 42 ],
			"seg" : [ 14, 23 ],
			"note" : [ 46, 18, 128 ]
		}
, 		{
			"state" : 300,
			"time" : [ 334506, 107 ],
			"seg" : [ 14, 23 ],
			"note" : [ 45, 35, 128 ]
		}
, 		{
			"state" : 301,
			"time" : [ 334738, 37 ],
			"seg" : [ 14, 23 ],
			"note" : [ 46, 30, 128 ]
		}
, 		{
			"state" : 302,
			"time" : [ 334775, 89 ],
			"seg" : [ 14, 23 ],
			"note" : [ 45, 22, 128 ]
		}
, 		{
			"state" : 303,
			"time" : [ 334864, 30 ],
			"seg" : [ 14, 23 ],
			"note" : [ 44, 16, 128 ]
		}
, 		{
			"state" : 304,
			"time" : [ 335064, 96 ],
			"seg" : [ 14, 23 ],
			"note" : [ 45, 17, 128 ]
		}
, 		{
			"state" : 305,
			"time" : [ 335160, 32 ],
			"seg" : [ 14, 23 ],
			"note" : [ 46, 22, 128 ]
		}
, 		{
			"state" : 306,
			"time" : [ 335192, 65 ],
			"seg" : [ 14, 23 ],
			"note" : [ 47, 23, 128 ]
		}
, 		{
			"state" : 307,
			"time" : [ 335447, 115 ],
			"seg" : [ 14, 23 ],
			"note" : [ 49, 40, 128 ]
		}
, 		{
			"state" : 308,
			"time" : [ 335562, 33 ],
			"seg" : [ 14, 23 ],
			"note" : [ 50, 57, 128 ]
		}
, 		{
			"state" : 309,
			"time" : [ 335595, 88 ],
			"seg" : [ 14, 23 ],
			"note" : [ 51, 63, 128 ]
		}
, 		{
			"state" : 310,
			"time" : [ 335683, 82 ],
			"seg" : [ 14, 23 ],
			"note" : [ 50, 65, 128 ]
		}
, 		{
			"state" : 311,
			"time" : [ 335765, 100 ],
			"seg" : [ 14, 23 ],
			"note" : [ 49, 70, 128 ]
		}
, 		{
			"state" : 312,
			"time" : [ 335865, 61 ],
			"seg" : [ 14, 23 ],
			"note" : [ 48, 60, 128 ]
		}
, 		{
			"state" : 313,
			"time" : [ 335926, 124 ],
			"seg" : [ 14, 23 ],
			"note" : [ 46, 53, 128 ]
		}
, 		{
			"state" : 314,
			"time" : [ 336050, 87 ],
			"seg" : [ 14, 23 ],
			"note" : [ 45, 45, 128 ]
		}
, 		{
			"state" : 315,
			"time" : [ 336137, 41 ],
			"seg" : [ 14, 23 ],
			"note" : [ 46, 43, 128 ]
		}
, 		{
			"state" : 316,
			"time" : [ 336278, 133 ],
			"seg" : [ 14, 23 ],
			"note" : [ 46, 44, 128 ]
		}
, 		{
			"state" : 317,
			"time" : [ 336411, 78 ],
			"seg" : [ 14, 23 ],
			"note" : [ 47, 41, 128 ]
		}
, 		{
			"state" : 318,
			"time" : [ 336489, 316 ],
			"seg" : [ 14, 23 ],
			"note" : [ 48, 49, 128 ]
		}
, 		{
			"state" : 319,
			"time" : [ 336805, 94 ],
			"seg" : [ 14, 23 ],
			"note" : [ 47, 46, 128 ]
		}
, 		{
			"state" : 320,
			"time" : [ 336899, 167 ],
			"seg" : [ 14, 23 ],
			"note" : [ 45, 42, 128 ]
		}
, 		{
			"state" : 321,
			"time" : [ 337283, 39 ],
			"seg" : [ 14, 23 ],
			"note" : [ 45, 51, 128 ]
		}
, 		{
			"state" : 322,
			"time" : [ 337322, 366 ],
			"seg" : [ 14, 23 ],
			"note" : [ 44, 50, 128 ]
		}
, 		{
			"state" : 323,
			"time" : [ 337688, 120 ],
			"seg" : [ 14, 23 ],
			"note" : [ 45, 31, 128 ]
		}
, 		{
			"state" : 324,
			"time" : [ 337932, 82 ],
			"seg" : [ 14, 23 ],
			"note" : [ 46, 46, 128 ]
		}
, 		{
			"state" : 325,
			"time" : [ 338150, 59 ],
			"seg" : [ 14, 23 ],
			"note" : [ 46, 55, 128 ]
		}
, 		{
			"state" : 326,
			"time" : [ 338209, 144 ],
			"seg" : [ 14, 23 ],
			"note" : [ 45, 54, 128 ]
		}
, 		{
			"state" : 327,
			"time" : [ 338353, 115 ],
			"seg" : [ 14, 23 ],
			"note" : [ 46, 51, 128 ]
		}
, 		{
			"state" : 328,
			"time" : [ 338468, 61 ],
			"seg" : [ 14, 23 ],
			"note" : [ 45, 51, 128 ]
		}
, 		{
			"state" : 329,
			"time" : [ 338529, 117 ],
			"seg" : [ 14, 23 ],
			"note" : [ 44, 41, 128 ]
		}
, 		{
			"state" : 330,
			"time" : [ 341384, 61 ],
			"seg" : [ 14, 24 ],
			"note" : [ 46, 28, 128 ]
		}
, 		{
			"state" : 331,
			"time" : [ 341445, 66 ],
			"seg" : [ 14, 24 ],
			"note" : [ 45, 30, 128 ]
		}
, 		{
			"state" : 332,
			"time" : [ 342206, 54 ],
			"seg" : [ 14, 24 ],
			"note" : [ 45, 48, 128 ]
		}
, 		{
			"state" : 333,
			"time" : [ 342399, 78 ],
			"seg" : [ 14, 24 ],
			"note" : [ 44, 37, 128 ]
		}
, 		{
			"state" : 334,
			"time" : [ 342567, 32 ],
			"seg" : [ 14, 24 ],
			"note" : [ 43, 32, 128 ]
		}
, 		{
			"state" : 335,
			"time" : [ 343209, 98 ],
			"seg" : [ 14, 24 ],
			"note" : [ 44, 30, 128 ]
		}
, 		{
			"state" : 336,
			"time" : [ 344251, 66 ],
			"seg" : [ 14, 24 ],
			"note" : [ 46, 50, 128 ]
		}
, 		{
			"state" : 337,
			"time" : [ 344317, 49 ],
			"seg" : [ 14, 24 ],
			"note" : [ 45, 57, 128 ]
		}
, 		{
			"state" : 338,
			"time" : [ 344366, 82 ],
			"seg" : [ 14, 24 ],
			"note" : [ 44, 53, 128 ]
		}
, 		{
			"state" : 339,
			"time" : [ 344610, 28 ],
			"seg" : [ 14, 24 ],
			"note" : [ 45, 49, 128 ]
		}
, 		{
			"state" : 340,
			"time" : [ 344638, 74 ],
			"seg" : [ 14, 24 ],
			"note" : [ 44, 51, 128 ]
		}
, 		{
			"state" : 341,
			"time" : [ 344862, 72 ],
			"seg" : [ 14, 24 ],
			"note" : [ 45, 38, 128 ]
		}
, 		{
			"state" : 342,
			"time" : [ 345012, 34 ],
			"seg" : [ 14, 24 ],
			"note" : [ 44, 42, 128 ]
		}
, 		{
			"state" : 343,
			"time" : [ 346661, 94 ],
			"seg" : [ 14, 24 ],
			"note" : [ 46, 16, 128 ]
		}
, 		{
			"state" : 344,
			"time" : [ 346755, 91 ],
			"seg" : [ 14, 24 ],
			"note" : [ 45, 22, 128 ]
		}
, 		{
			"state" : 345,
			"time" : [ 347376, 81 ],
			"seg" : [ 14, 24 ],
			"note" : [ 49, 60, 128 ]
		}
, 		{
			"state" : 346,
			"time" : [ 347586, 74 ],
			"seg" : [ 14, 24 ],
			"note" : [ 45, 46, 128 ]
		}
, 		{
			"state" : 347,
			"time" : [ 348230, 71 ],
			"seg" : [ 14, 24 ],
			"note" : [ 43, 34, 128 ]
		}
, 		{
			"state" : 348,
			"time" : [ 348301, 98 ],
			"seg" : [ 14, 24 ],
			"note" : [ 44, 37, 128 ]
		}
, 		{
			"state" : 349,
			"time" : [ 348723, 62 ],
			"seg" : [ 14, 24 ],
			"note" : [ 47, 45, 128 ]
		}
, 		{
			"state" : 350,
			"time" : [ 348854, 60 ],
			"seg" : [ 14, 24 ],
			"note" : [ 46, 56, 128 ]
		}
, 		{
			"state" : 351,
			"time" : [ 348914, 156 ],
			"seg" : [ 14, 24 ],
			"note" : [ 44, 45, 128 ]
		}
, 		{
			"state" : 352,
			"time" : [ 349323, 43 ],
			"seg" : [ 14, 24 ],
			"note" : [ 56, 76, 128 ]
		}
, 		{
			"state" : 353,
			"time" : [ 349366, 73 ],
			"seg" : [ 14, 24 ],
			"note" : [ 57, 71, 128 ]
		}
, 		{
			"state" : 354,
			"time" : [ 349540, 128 ],
			"seg" : [ 14, 24 ],
			"note" : [ 53, 56, 128 ]
		}
, 		{
			"state" : 355,
			"time" : [ 349781, 104 ],
			"seg" : [ 14, 24 ],
			"note" : [ 51, 61, 128 ]
		}
, 		{
			"state" : 356,
			"time" : [ 349885, 56 ],
			"seg" : [ 14, 24 ],
			"note" : [ 48, 54, 128 ]
		}
, 		{
			"state" : 357,
			"time" : [ 349978, 91 ],
			"seg" : [ 14, 24 ],
			"note" : [ 52, 46, 128 ]
		}
, 		{
			"state" : 358,
			"time" : [ 354225, 126 ],
			"seg" : [ 15, 25 ],
			"note" : [ 45, 38, 128 ]
		}
, 		{
			"state" : 359,
			"time" : [ 354351, 76 ],
			"seg" : [ 15, 25 ],
			"note" : [ 46, 42, 128 ]
		}
, 		{
			"state" : 360,
			"time" : [ 358637, 34 ],
			"seg" : [ 16, 26 ],
			"note" : [ 44, 29, 128 ]
		}
, 		{
			"state" : 361,
			"time" : [ 361258, 79 ],
			"seg" : [ 16, 27 ],
			"note" : [ 45, 47, 128 ]
		}
, 		{
			"state" : 362,
			"time" : [ 361478, 37 ],
			"seg" : [ 16, 27 ],
			"note" : [ 48, 50, 128 ]
		}
, 		{
			"state" : 363,
			"time" : [ 361515, 21 ],
			"seg" : [ 16, 27 ],
			"note" : [ 47, 43, 128 ]
		}
, 		{
			"state" : 364,
			"time" : [ 363043, 56 ],
			"seg" : [ 16, 27 ],
			"note" : [ 44, 41, 128 ]
		}
, 		{
			"state" : 365,
			"time" : [ 364436, 71 ],
			"seg" : [ 16, 27 ],
			"note" : [ 46, 45, 128 ]
		}
, 		{
			"state" : 366,
			"time" : [ 365731, 99 ],
			"seg" : [ 16, 27 ],
			"note" : [ 44, 28, 128 ]
		}
, 		{
			"state" : 367,
			"time" : [ 368148, 56 ],
			"seg" : [ 16, 28 ],
			"note" : [ 47, 35, 128 ]
		}
, 		{
			"state" : 368,
			"time" : [ 368204, 88 ],
			"seg" : [ 16, 28 ],
			"note" : [ 45, 35, 128 ]
		}
, 		{
			"state" : 369,
			"time" : [ 368292, 229 ],
			"seg" : [ 16, 28 ],
			"note" : [ 44, 35, 128 ]
		}
, 		{
			"state" : 370,
			"time" : [ 369609, 62 ],
			"seg" : [ 16, 28 ],
			"note" : [ 46, 37, 128 ]
		}
, 		{
			"state" : 371,
			"time" : [ 370938, 64 ],
			"seg" : [ 16, 28 ],
			"note" : [ 45, 33, 128 ]
		}
, 		{
			"state" : 372,
			"time" : [ 371579, 55 ],
			"seg" : [ 16, 28 ],
			"note" : [ 44, 27, 128 ]
		}
, 		{
			"state" : 373,
			"time" : [ 372045, 37 ],
			"seg" : [ 16, 28 ],
			"note" : [ 45, 31, 128 ]
		}
, 		{
			"state" : 374,
			"time" : [ 372082, 84 ],
			"seg" : [ 16, 28 ],
			"note" : [ 44, 35, 128 ]
		}
, 		{
			"state" : 375,
			"time" : [ 372166, 106 ],
			"seg" : [ 16, 28 ],
			"note" : [ 45, 34, 128 ]
		}
, 		{
			"state" : 376,
			"time" : [ 372649, 79 ],
			"seg" : [ 16, 28 ],
			"note" : [ 44, 30, 128 ]
		}
, 		{
			"state" : 377,
			"time" : [ 372728, 63 ],
			"seg" : [ 16, 28 ],
			"note" : [ 45, 30, 128 ]
		}
, 		{
			"state" : 378,
			"time" : [ 372791, 48 ],
			"seg" : [ 16, 28 ],
			"note" : [ 44, 26, 128 ]
		}
, 		{
			"state" : 379,
			"time" : [ 377448, 70 ],
			"seg" : [ 17, 29 ],
			"note" : [ 44, 38, 128 ]
		}
, 		{
			"state" : 380,
			"time" : [ 384308, 163 ],
			"seg" : [ 18, 30 ],
			"note" : [ 47, 22, 128 ]
		}
, 		{
			"state" : 381,
			"time" : [ 384602, 31 ],
			"seg" : [ 18, 30 ],
			"note" : [ 48, 29, 128 ]
		}
, 		{
			"state" : 382,
			"time" : [ 384687, 51 ],
			"seg" : [ 18, 30 ],
			"note" : [ 47, 26, 128 ]
		}
, 		{
			"state" : 383,
			"time" : [ 384900, 205 ],
			"seg" : [ 18, 30 ],
			"note" : [ 46, 27, 128 ]
		}
, 		{
			"state" : 384,
			"time" : [ 385105, 141 ],
			"seg" : [ 18, 30 ],
			"note" : [ 45, 23, 128 ]
		}
, 		{
			"state" : 385,
			"time" : [ 385246, 37 ],
			"seg" : [ 18, 30 ],
			"note" : [ 44, 25, 128 ]
		}
, 		{
			"state" : 386,
			"time" : [ 385378, 73 ],
			"seg" : [ 18, 30 ],
			"note" : [ 45, 26, 128 ]
		}
, 		{
			"state" : 387,
			"time" : [ 385451, 69 ],
			"seg" : [ 18, 30 ],
			"note" : [ 44, 21, 128 ]
		}
, 		{
			"state" : 388,
			"time" : [ 385520, 26 ],
			"seg" : [ 18, 30 ],
			"note" : [ 43, 23, 128 ]
		}
, 		{
			"state" : 389,
			"time" : [ 388085, 58 ],
			"seg" : [ 18, 31 ],
			"note" : [ 44, 21, 128 ]
		}
, 		{
			"state" : 390,
			"time" : [ 388556, 89 ],
			"seg" : [ 18, 31 ],
			"note" : [ 45, 30, 128 ]
		}
, 		{
			"state" : 391,
			"time" : [ 388645, 61 ],
			"seg" : [ 18, 31 ],
			"note" : [ 44, 20, 128 ]
		}
, 		{
			"state" : 392,
			"time" : [ 388978, 143 ],
			"seg" : [ 18, 31 ],
			"note" : [ 44, 19, 128 ]
		}
, 		{
			"state" : 393,
			"time" : [ 389121, 73 ],
			"seg" : [ 18, 31 ],
			"note" : [ 43, 23, 128 ]
		}
, 		{
			"state" : 394,
			"time" : [ 390323, 109 ],
			"seg" : [ 18, 31 ],
			"note" : [ 43, 23, 128 ]
		}
, 		{
			"state" : 395,
			"time" : [ 390971, 79 ],
			"seg" : [ 18, 31 ],
			"note" : [ 47, 44, 128 ]
		}
, 		{
			"state" : 396,
			"time" : [ 391164, 118 ],
			"seg" : [ 18, 31 ],
			"note" : [ 45, 40, 128 ]
		}
, 		{
			"state" : 397,
			"time" : [ 391282, 30 ],
			"seg" : [ 18, 31 ],
			"note" : [ 44, 34, 128 ]
		}
, 		{
			"state" : 398,
			"time" : [ 392646, 42 ],
			"seg" : [ 18, 31 ],
			"note" : [ 44, 24, 128 ]
		}
, 		{
			"state" : 399,
			"time" : [ 393394, 59 ],
			"seg" : [ 18, 31 ],
			"note" : [ 44, 27, 128 ]
		}
, 		{
			"state" : 400,
			"time" : [ 394345, 56 ],
			"seg" : [ 18, 31 ],
			"note" : [ 46, 37, 128 ]
		}
, 		{
			"state" : 401,
			"time" : [ 394401, 54 ],
			"seg" : [ 18, 31 ],
			"note" : [ 45, 35, 128 ]
		}
, 		{
			"state" : 402,
			"time" : [ 394620, 53 ],
			"seg" : [ 18, 31 ],
			"note" : [ 44, 22, 128 ]
		}
, 		{
			"state" : 403,
			"time" : [ 394673, 182 ],
			"seg" : [ 18, 31 ],
			"note" : [ 45, 36, 128 ]
		}
, 		{
			"state" : 404,
			"time" : [ 394855, 45 ],
			"seg" : [ 18, 31 ],
			"note" : [ 44, 31, 128 ]
		}
, 		{
			"state" : 405,
			"time" : [ 394900, 27 ],
			"seg" : [ 18, 31 ],
			"note" : [ 43, 29, 128 ]
		}
, 		{
			"state" : 406,
			"time" : [ 395512, 32 ],
			"seg" : [ 18, 31 ],
			"note" : [ 44, 15, 128 ]
		}
, 		{
			"state" : 407,
			"time" : [ 395780, 67 ],
			"seg" : [ 18, 31 ],
			"note" : [ 45, 36, 128 ]
		}
, 		{
			"state" : 408,
			"time" : [ 395847, 47 ],
			"seg" : [ 18, 31 ],
			"note" : [ 44, 36, 128 ]
		}
, 		{
			"state" : 409,
			"time" : [ 397607, 43 ],
			"seg" : [ 18, 31 ],
			"note" : [ 55, 12, 128 ]
		}
, 		{
			"state" : 410,
			"time" : [ 401781, 60 ],
			"seg" : [ 19, 32 ],
			"note" : [ 45, 35, 128 ]
		}
, 		{
			"state" : 411,
			"time" : [ 401841, 72 ],
			"seg" : [ 19, 32 ],
			"note" : [ 44, 41, 128 ]
		}
, 		{
			"state" : 412,
			"time" : [ 402027, 40 ],
			"seg" : [ 19, 32 ],
			"note" : [ 44, 38, 128 ]
		}
, 		{
			"state" : 413,
			"time" : [ 405440, 58 ],
			"seg" : [ 20, 33 ],
			"note" : [ 44, 40, 128 ]
		}
, 		{
			"state" : 414,
			"time" : [ 405687, 35 ],
			"seg" : [ 20, 33 ],
			"note" : [ 49, 43, 128 ]
		}
, 		{
			"state" : 415,
			"time" : [ 406760, 47 ],
			"seg" : [ 20, 33 ],
			"note" : [ 47, 17, 128 ]
		}
, 		{
			"state" : 416,
			"time" : [ 406847, 88 ],
			"seg" : [ 20, 33 ],
			"note" : [ 48, 31, 128 ]
		}
, 		{
			"state" : 417,
			"time" : [ 407343, 70 ],
			"seg" : [ 20, 33 ],
			"note" : [ 48, 11, 128 ]
		}
, 		{
			"state" : 418,
			"time" : [ 407413, 109 ],
			"seg" : [ 20, 33 ],
			"note" : [ 47, 25, 128 ]
		}
, 		{
			"state" : 419,
			"time" : [ 407522, 47 ],
			"seg" : [ 20, 33 ],
			"note" : [ 48, 32, 128 ]
		}
, 		{
			"state" : 420,
			"time" : [ 407712, 74 ],
			"seg" : [ 20, 33 ],
			"note" : [ 49, 37, 128 ]
		}
, 		{
			"state" : 421,
			"time" : [ 407820, 44 ],
			"seg" : [ 20, 33 ],
			"note" : [ 47, 34, 128 ]
		}
, 		{
			"state" : 422,
			"time" : [ 408348, 152 ],
			"seg" : [ 20, 33 ],
			"note" : [ 45, 31, 128 ]
		}
, 		{
			"state" : 423,
			"time" : [ 408882, 40 ],
			"seg" : [ 20, 33 ],
			"note" : [ 45, 21, 128 ]
		}
, 		{
			"state" : 424,
			"time" : [ 409395, 77 ],
			"seg" : [ 20, 33 ],
			"note" : [ 49, 44, 128 ]
		}
, 		{
			"state" : 425,
			"time" : [ 409772, 49 ],
			"seg" : [ 20, 33 ],
			"note" : [ 46, 34, 128 ]
		}
, 		{
			"state" : 426,
			"time" : [ 409821, 32 ],
			"seg" : [ 20, 33 ],
			"note" : [ 45, 29, 128 ]
		}
, 		{
			"state" : 427,
			"time" : [ 409853, 115 ],
			"seg" : [ 20, 33 ],
			"note" : [ 44, 12, 128 ]
		}
, 		{
			"state" : 428,
			"time" : [ 409968, 151 ],
			"seg" : [ 20, 33 ],
			"note" : [ 45, 26, 128 ]
		}
, 		{
			"state" : 429,
			"time" : [ 410432, 43 ],
			"seg" : [ 20, 33 ],
			"note" : [ 44, 28, 128 ]
		}
, 		{
			"state" : 430,
			"time" : [ 410975, 50 ],
			"seg" : [ 20, 33 ],
			"note" : [ 44, 20, 128 ]
		}
, 		{
			"state" : 431,
			"time" : [ 411717, 156 ],
			"seg" : [ 20, 33 ],
			"note" : [ 44, 25, 128 ]
		}
, 		{
			"state" : 432,
			"time" : [ 415647, 32 ],
			"seg" : [ 21, 34 ],
			"note" : [ 44, 27, 128 ]
		}
, 		{
			"state" : 433,
			"time" : [ 415679, 132 ],
			"seg" : [ 21, 34 ],
			"note" : [ 45, 27, 128 ]
		}
, 		{
			"state" : 434,
			"time" : [ 415811, 243 ],
			"seg" : [ 21, 34 ],
			"note" : [ 44, 17, 128 ]
		}
, 		{
			"state" : 435,
			"time" : [ 416054, 114 ],
			"seg" : [ 21, 34 ],
			"note" : [ 45, 25, 128 ]
		}
, 		{
			"state" : 436,
			"time" : [ 416672, 48 ],
			"seg" : [ 21, 34 ],
			"note" : [ 44, 38, 128 ]
		}
, 		{
			"state" : 437,
			"time" : [ 423098, 72 ],
			"seg" : [ 22, 35 ],
			"note" : [ 47, 55, 128 ]
		}
, 		{
			"state" : 438,
			"time" : [ 423407, 109 ],
			"seg" : [ 22, 35 ],
			"note" : [ 47, 47, 128 ]
		}
, 		{
			"state" : 439,
			"time" : [ 423586, 77 ],
			"seg" : [ 22, 35 ],
			"note" : [ 45, 36, 128 ]
		}
, 		{
			"state" : 440,
			"time" : [ 423910, 79 ],
			"seg" : [ 22, 35 ],
			"note" : [ 46, 39, 128 ]
		}
, 		{
			"state" : 441,
			"time" : [ 423989, 114 ],
			"seg" : [ 22, 35 ],
			"note" : [ 45, 38, 128 ]
		}
, 		{
			"state" : 442,
			"time" : [ 424103, 97 ],
			"seg" : [ 22, 35 ],
			"note" : [ 44, 38, 128 ]
		}
, 		{
			"state" : 443,
			"time" : [ 424200, 91 ],
			"seg" : [ 22, 35 ],
			"note" : [ 45, 43, 128 ]
		}
, 		{
			"state" : 444,
			"time" : [ 424291, 82 ],
			"seg" : [ 22, 35 ],
			"note" : [ 44, 37, 128 ]
		}
, 		{
			"state" : 445,
			"time" : [ 424440, 74 ],
			"seg" : [ 22, 35 ],
			"note" : [ 45, 40, 128 ]
		}
, 		{
			"state" : 446,
			"time" : [ 424514, 102 ],
			"seg" : [ 22, 35 ],
			"note" : [ 44, 41, 128 ]
		}
, 		{
			"state" : 447,
			"time" : [ 425086, 64 ],
			"seg" : [ 22, 35 ],
			"note" : [ 46, 24, 128 ]
		}
, 		{
			"state" : 448,
			"time" : [ 425150, 64 ],
			"seg" : [ 22, 35 ],
			"note" : [ 45, 37, 128 ]
		}
, 		{
			"state" : 449,
			"time" : [ 425377, 71 ],
			"seg" : [ 22, 35 ],
			"note" : [ 45, 40, 128 ]
		}
, 		{
			"state" : 450,
			"time" : [ 425646, 126 ],
			"seg" : [ 22, 35 ],
			"note" : [ 44, 45, 128 ]
		}
, 		{
			"state" : 451,
			"time" : [ 425772, 85 ],
			"seg" : [ 22, 35 ],
			"note" : [ 45, 38, 128 ]
		}
, 		{
			"state" : 452,
			"time" : [ 425857, 46 ],
			"seg" : [ 22, 35 ],
			"note" : [ 44, 34, 128 ]
		}
, 		{
			"state" : 453,
			"time" : [ 426670, 70 ],
			"seg" : [ 22, 35 ],
			"note" : [ 45, 40, 128 ]
		}
, 		{
			"state" : 454,
			"time" : [ 426740, 143 ],
			"seg" : [ 22, 35 ],
			"note" : [ 46, 51, 128 ]
		}
, 		{
			"state" : 455,
			"time" : [ 426883, 71 ],
			"seg" : [ 22, 35 ],
			"note" : [ 48, 58, 128 ]
		}
, 		{
			"state" : 456,
			"time" : [ 427141, 59 ],
			"seg" : [ 22, 35 ],
			"note" : [ 49, 37, 128 ]
		}
, 		{
			"state" : 457,
			"time" : [ 427455, 55 ],
			"seg" : [ 22, 35 ],
			"note" : [ 48, 40, 128 ]
		}
, 		{
			"state" : 458,
			"time" : [ 427974, 43 ],
			"seg" : [ 22, 35 ],
			"note" : [ 47, 46, 128 ]
		}
, 		{
			"state" : 459,
			"time" : [ 428017, 94 ],
			"seg" : [ 22, 35 ],
			"note" : [ 46, 45, 128 ]
		}
, 		{
			"state" : 460,
			"time" : [ 428486, 75 ],
			"seg" : [ 22, 35 ],
			"note" : [ 48, 38, 128 ]
		}
, 		{
			"state" : 461,
			"time" : [ 428561, 67 ],
			"seg" : [ 22, 35 ],
			"note" : [ 47, 42, 128 ]
		}
, 		{
			"state" : 462,
			"time" : [ 428728, 131 ],
			"seg" : [ 22, 35 ],
			"note" : [ 44, 26, 128 ]
		}
, 		{
			"state" : 463,
			"time" : [ 428859, 68 ],
			"seg" : [ 22, 35 ],
			"note" : [ 45, 51, 128 ]
		}
, 		{
			"state" : 464,
			"time" : [ 429460, 48 ],
			"seg" : [ 22, 35 ],
			"note" : [ 46, 53, 128 ]
		}
, 		{
			"state" : 465,
			"time" : [ 429508, 79 ],
			"seg" : [ 22, 35 ],
			"note" : [ 45, 54, 128 ]
		}
, 		{
			"state" : 466,
			"time" : [ 431008, 96 ],
			"seg" : [ 22, 35 ],
			"note" : [ 47, 45, 128 ]
		}
, 		{
			"state" : 467,
			"time" : [ 431104, 172 ],
			"seg" : [ 22, 35 ],
			"note" : [ 46, 48, 128 ]
		}
, 		{
			"state" : 468,
			"time" : [ 431348, 58 ],
			"seg" : [ 22, 35 ],
			"note" : [ 46, 3, 128 ]
		}
, 		{
			"state" : 469,
			"time" : [ 432497, 35 ],
			"seg" : [ 22, 35 ],
			"note" : [ 45, 41, 128 ]
		}
, 		{
			"state" : 470,
			"time" : [ 432532, 152 ],
			"seg" : [ 22, 35 ],
			"note" : [ 44, 39, 128 ]
		}
, 		{
			"state" : 471,
			"time" : [ 433017, 45 ],
			"seg" : [ 22, 35 ],
			"note" : [ 46, 48, 128 ]
		}
, 		{
			"state" : 472,
			"time" : [ 433062, 44 ],
			"seg" : [ 22, 35 ],
			"note" : [ 45, 47, 128 ]
		}
, 		{
			"state" : 473,
			"time" : [ 433106, 39 ],
			"seg" : [ 22, 35 ],
			"note" : [ 44, 44, 128 ]
		}
, 		{
			"state" : 474,
			"time" : [ 433197, 125 ],
			"seg" : [ 22, 35 ],
			"note" : [ 44, 48, 128 ]
		}
, 		{
			"state" : 475,
			"time" : [ 434233, 49 ],
			"seg" : [ 22, 35 ],
			"note" : [ 47, 38, 128 ]
		}
, 		{
			"state" : 476,
			"time" : [ 434282, 45 ],
			"seg" : [ 22, 35 ],
			"note" : [ 46, 37, 128 ]
		}
, 		{
			"state" : 477,
			"time" : [ 434327, 38 ],
			"seg" : [ 22, 35 ],
			"note" : [ 47, 39, 128 ]
		}
, 		{
			"state" : 478,
			"time" : [ 434365, 72 ],
			"seg" : [ 22, 35 ],
			"note" : [ 46, 44, 128 ]
		}
, 		{
			"state" : 479,
			"time" : [ 434452, 117 ],
			"seg" : [ 22, 35 ],
			"note" : [ 46, 44, 128 ]
		}
, 		{
			"state" : 480,
			"time" : [ 434569, 80 ],
			"seg" : [ 22, 35 ],
			"note" : [ 45, 40, 128 ]
		}
, 		{
			"state" : 481,
			"time" : [ 434649, 51 ],
			"seg" : [ 22, 35 ],
			"note" : [ 46, 42, 128 ]
		}
, 		{
			"state" : 482,
			"time" : [ 434700, 150 ],
			"seg" : [ 22, 35 ],
			"note" : [ 45, 40, 128 ]
		}
, 		{
			"state" : 483,
			"time" : [ 434850, 41 ],
			"seg" : [ 22, 35 ],
			"note" : [ 46, 41, 128 ]
		}
, 		{
			"state" : 484,
			"time" : [ 434891, 42 ],
			"seg" : [ 22, 35 ],
			"note" : [ 45, 38, 128 ]
		}
, 		{
			"state" : 485,
			"time" : [ 434933, 65 ],
			"seg" : [ 22, 35 ],
			"note" : [ 46, 38, 128 ]
		}
, 		{
			"state" : 486,
			"time" : [ 434998, 42 ],
			"seg" : [ 22, 35 ],
			"note" : [ 44, 35, 128 ]
		}
, 		{
			"state" : 487,
			"time" : [ 435455, 68 ],
			"seg" : [ 22, 35 ],
			"note" : [ 45, 42, 128 ]
		}
, 		{
			"state" : 488,
			"time" : [ 435523, 63 ],
			"seg" : [ 22, 35 ],
			"note" : [ 44, 36, 128 ]
		}
, 		{
			"state" : 489,
			"time" : [ 435586, 141 ],
			"seg" : [ 22, 35 ],
			"note" : [ 46, 40, 128 ]
		}
, 		{
			"state" : 490,
			"time" : [ 435727, 80 ],
			"seg" : [ 22, 35 ],
			"note" : [ 47, 43, 128 ]
		}
, 		{
			"state" : 491,
			"time" : [ 435807, 64 ],
			"seg" : [ 22, 35 ],
			"note" : [ 45, 43, 128 ]
		}
, 		{
			"state" : 492,
			"time" : [ 435871, 110 ],
			"seg" : [ 22, 35 ],
			"note" : [ 46, 51, 128 ]
		}
, 		{
			"state" : 493,
			"time" : [ 436087, 54 ],
			"seg" : [ 22, 35 ],
			"note" : [ 46, 57, 128 ]
		}
, 		{
			"state" : 494,
			"time" : [ 436246, 29 ],
			"seg" : [ 22, 35 ],
			"note" : [ 45, 43, 128 ]
		}
, 		{
			"state" : 495,
			"time" : [ 436275, 58 ],
			"seg" : [ 22, 35 ],
			"note" : [ 46, 49, 128 ]
		}
, 		{
			"state" : 496,
			"time" : [ 436333, 139 ],
			"seg" : [ 22, 35 ],
			"note" : [ 45, 44, 128 ]
		}
, 		{
			"state" : 497,
			"time" : [ 436509, 46 ],
			"seg" : [ 22, 35 ],
			"note" : [ 45, 27, 128 ]
		}
, 		{
			"state" : 498,
			"time" : [ 436945, 63 ],
			"seg" : [ 22, 35 ],
			"note" : [ 46, 57, 128 ]
		}
, 		{
			"state" : 499,
			"time" : [ 437254, 56 ],
			"seg" : [ 22, 35 ],
			"note" : [ 46, 45, 128 ]
		}
, 		{
			"state" : 500,
			"time" : [ 437362, 93 ],
			"seg" : [ 22, 35 ],
			"note" : [ 46, 48, 128 ]
		}
, 		{
			"state" : 501,
			"time" : [ 437502, 52 ],
			"seg" : [ 22, 35 ],
			"note" : [ 53, 29, 128 ]
		}
, 		{
			"state" : 502,
			"time" : [ 437788, 60 ],
			"seg" : [ 22, 35 ],
			"note" : [ 53, 35, 128 ]
		}
, 		{
			"state" : 503,
			"time" : [ 437848, 79 ],
			"seg" : [ 22, 35 ],
			"note" : [ 52, 32, 128 ]
		}
, 		{
			"state" : 504,
			"time" : [ 438306, 53 ],
			"seg" : [ 22, 35 ],
			"note" : [ 48, 28, 128 ]
		}
, 		{
			"state" : 505,
			"time" : [ 438359, 75 ],
			"seg" : [ 22, 35 ],
			"note" : [ 47, 37, 128 ]
		}
, 		{
			"state" : 506,
			"time" : [ 439072, 126 ],
			"seg" : [ 22, 35 ],
			"note" : [ 44, 21, 128 ]
		}
, 		{
			"state" : 507,
			"time" : [ 442626, 99 ],
			"seg" : [ 23, 36 ],
			"note" : [ 44, 16, 128 ]
		}
, 		{
			"state" : 508,
			"time" : [ 443302, 43 ],
			"seg" : [ 23, 36 ],
			"note" : [ 49, 34, 128 ]
		}
, 		{
			"state" : 509,
			"time" : [ 443345, 294 ],
			"seg" : [ 23, 36 ],
			"note" : [ 48, 31, 128 ]
		}
, 		{
			"state" : 510,
			"time" : [ 443859, 65 ],
			"seg" : [ 23, 36 ],
			"note" : [ 46, 24, 128 ]
		}
, 		{
			"state" : 511,
			"time" : [ 444046, 85 ],
			"seg" : [ 23, 36 ],
			"note" : [ 44, 31, 128 ]
		}
, 		{
			"state" : 512,
			"time" : [ 444888, 72 ],
			"seg" : [ 23, 36 ],
			"note" : [ 44, 20, 128 ]
		}
, 		{
			"state" : 513,
			"time" : [ 444995, 57 ],
			"seg" : [ 23, 36 ],
			"note" : [ 43, 26, 128 ]
		}
, 		{
			"state" : 514,
			"time" : [ 445115, 105 ],
			"seg" : [ 23, 36 ],
			"note" : [ 44, 26, 128 ]
		}
, 		{
			"state" : 515,
			"time" : [ 445318, 36 ],
			"seg" : [ 23, 36 ],
			"note" : [ 44, 17, 128 ]
		}
, 		{
			"state" : 516,
			"time" : [ 445974, 91 ],
			"seg" : [ 23, 36 ],
			"note" : [ 50, 60, 128 ]
		}
, 		{
			"state" : 517,
			"time" : [ 446868, 130 ],
			"seg" : [ 23, 36 ],
			"note" : [ 44, 18, 128 ]
		}
, 		{
			"state" : 518,
			"time" : [ 447537, 59 ],
			"seg" : [ 23, 36 ],
			"note" : [ 45, 40, 128 ]
		}
, 		{
			"state" : 519,
			"time" : [ 447596, 41 ],
			"seg" : [ 23, 36 ],
			"note" : [ 44, 39, 128 ]
		}
, 		{
			"state" : 520,
			"time" : [ 449334, 109 ],
			"seg" : [ 23, 36 ],
			"note" : [ 45, 41, 128 ]
		}
, 		{
			"state" : 521,
			"time" : [ 450400, 64 ],
			"seg" : [ 23, 36 ],
			"note" : [ 46, 38, 128 ]
		}
, 		{
			"state" : 522,
			"time" : [ 450464, 36 ],
			"seg" : [ 23, 36 ],
			"note" : [ 44, 37, 128 ]
		}
, 		{
			"state" : 523,
			"time" : [ 451603, 120 ],
			"seg" : [ 23, 36 ],
			"note" : [ 46, 20, 128 ]
		}
, 		{
			"state" : 524,
			"time" : [ 451723, 93 ],
			"seg" : [ 23, 36 ],
			"note" : [ 45, 24, 128 ]
		}
, 		{
			"state" : 525,
			"time" : [ 452281, 169 ],
			"seg" : [ 23, 36 ],
			"note" : [ 49, 42, 128 ]
		}
, 		{
			"state" : 526,
			"time" : [ 452450, 35 ],
			"seg" : [ 23, 36 ],
			"note" : [ 50, 39, 128 ]
		}
, 		{
			"state" : 527,
			"time" : [ 452485, 55 ],
			"seg" : [ 23, 36 ],
			"note" : [ 49, 31, 128 ]
		}
, 		{
			"state" : 528,
			"time" : [ 452540, 40 ],
			"seg" : [ 23, 36 ],
			"note" : [ 48, 30, 128 ]
		}
, 		{
			"state" : 529,
			"time" : [ 452580, 128 ],
			"seg" : [ 23, 36 ],
			"note" : [ 47, 25, 128 ]
		}
, 		{
			"state" : 530,
			"time" : [ 452708, 39 ],
			"seg" : [ 23, 36 ],
			"note" : [ 46, 18, 128 ]
		}
, 		{
			"state" : 531,
			"time" : [ 452922, 67 ],
			"seg" : [ 23, 36 ],
			"note" : [ 45, 35, 128 ]
		}
, 		{
			"state" : 532,
			"time" : [ 453530, 19 ],
			"seg" : [ 23, 36 ],
			"note" : [ 45, 24, 128 ]
		}
, 		{
			"state" : 533,
			"time" : [ 453549, 98 ],
			"seg" : [ 23, 36 ],
			"note" : [ 46, 28, 128 ]
		}
, 		{
			"state" : 534,
			"time" : [ 453647, 155 ],
			"seg" : [ 23, 36 ],
			"note" : [ 47, 38, 128 ]
		}
, 		{
			"state" : 535,
			"time" : [ 453975, 36 ],
			"seg" : [ 23, 36 ],
			"note" : [ 46, 25, 128 ]
		}
, 		{
			"state" : 536,
			"time" : [ 454680, 64 ],
			"seg" : [ 23, 36 ],
			"note" : [ 47, 49, 128 ]
		}
, 		{
			"state" : 537,
			"time" : [ 456328, 86 ],
			"seg" : [ 23, 36 ],
			"note" : [ 45, 20, 128 ]
		}
, 		{
			"state" : 538,
			"time" : [ 456414, 40 ],
			"seg" : [ 23, 36 ],
			"note" : [ 44, 19, 128 ]
		}
, 		{
			"state" : 539,
			"time" : [ 456568, 96 ],
			"seg" : [ 23, 36 ],
			"note" : [ 44, 17, 128 ]
		}
, 		{
			"state" : 540,
			"time" : [ 456664, 78 ],
			"seg" : [ 23, 36 ],
			"note" : [ 45, 28, 128 ]
		}
, 		{
			"state" : 541,
			"time" : [ 456742, 103 ],
			"seg" : [ 23, 36 ],
			"note" : [ 46, 31, 128 ]
		}
, 		{
			"state" : 542,
			"time" : [ 456969, 79 ],
			"seg" : [ 23, 36 ],
			"note" : [ 47, 29, 128 ]
		}
, 		{
			"state" : 543,
			"time" : [ 457048, 58 ],
			"seg" : [ 23, 36 ],
			"note" : [ 45, 22, 128 ]
		}
, 		{
			"state" : 544,
			"time" : [ 457297, 76 ],
			"seg" : [ 23, 36 ],
			"note" : [ 46, 28, 128 ]
		}
, 		{
			"state" : 545,
			"time" : [ 457428, 45 ],
			"seg" : [ 23, 36 ],
			"note" : [ 45, 30, 128 ]
		}
, 		{
			"state" : 546,
			"time" : [ 457838, 92 ],
			"seg" : [ 23, 36 ],
			"note" : [ 45, 30, 128 ]
		}
, 		{
			"state" : 547,
			"time" : [ 457930, 82 ],
			"seg" : [ 23, 36 ],
			"note" : [ 44, 22, 128 ]
		}
, 		{
			"state" : 548,
			"time" : [ 458440, 39 ],
			"seg" : [ 23, 36 ],
			"note" : [ 44, 23, 128 ]
		}
, 		{
			"state" : 549,
			"time" : [ 458614, 36 ],
			"seg" : [ 23, 36 ],
			"note" : [ 46, 16, 128 ]
		}
, 		{
			"state" : 550,
			"time" : [ 458650, 58 ],
			"seg" : [ 23, 36 ],
			"note" : [ 45, 19, 128 ]
		}
, 		{
			"state" : 551,
			"time" : [ 459065, 151 ],
			"seg" : [ 23, 36 ],
			"note" : [ 44, 15, 128 ]
		}
, 		{
			"state" : 552,
			"time" : [ 459529, 131 ],
			"seg" : [ 23, 36 ],
			"note" : [ 44, 12, 128 ]
		}
, 		{
			"state" : 553,
			"time" : [ 460417, 75 ],
			"seg" : [ 23, 36 ],
			"note" : [ 44, 18, 128 ]
		}
, 		{
			"state" : 554,
			"time" : [ 460963, 155 ],
			"seg" : [ 23, 36 ],
			"note" : [ 44, 15, 128 ]
		}
, 		{
			"state" : 555,
			"time" : [ 461425, 78 ],
			"seg" : [ 23, 36 ],
			"note" : [ 44, 22, 128 ]
		}
, 		{
			"state" : 556,
			"time" : [ 462404, 41 ],
			"seg" : [ 23, 36 ],
			"note" : [ 44, 22, 128 ]
		}
, 		{
			"state" : 557,
			"time" : [ 462775, 45 ],
			"seg" : [ 23, 36 ],
			"note" : [ 44, 12, 128 ]
		}
, 		{
			"state" : 558,
			"time" : [ 463054, 97 ],
			"seg" : [ 23, 36 ],
			"note" : [ 47, 20, 128 ]
		}
, 		{
			"state" : 559,
			"time" : [ 464569, 30 ],
			"seg" : [ 23, 36 ],
			"note" : [ 46, 33, 128 ]
		}
, 		{
			"state" : 560,
			"time" : [ 464955, 33 ],
			"seg" : [ 23, 36 ],
			"note" : [ 44, 35, 128 ]
		}
, 		{
			"state" : 561,
			"time" : [ 465076, 108 ],
			"seg" : [ 23, 36 ],
			"note" : [ 44, 27, 128 ]
		}
, 		{
			"state" : 562,
			"time" : [ 466409, 47 ],
			"seg" : [ 23, 36 ],
			"note" : [ 44, 41, 128 ]
		}
, 		{
			"state" : 563,
			"time" : [ 467857, 125 ],
			"seg" : [ 23, 36 ],
			"note" : [ 45, 44, 128 ]
		}
, 		{
			"state" : 564,
			"time" : [ 467982, 35 ],
			"seg" : [ 23, 36 ],
			"note" : [ 44, 42, 128 ]
		}
, 		{
			"state" : 565,
			"time" : [ 469202, 52 ],
			"seg" : [ 23, 36 ],
			"note" : [ 44, 40, 128 ]
		}
, 		{
			"state" : 566,
			"time" : [ 470802, 41 ],
			"seg" : [ 23, 36 ],
			"note" : [ 44, 29, 128 ]
		}
, 		{
			"state" : 567,
			"time" : [ 471696, 67 ],
			"seg" : [ 23, 36 ],
			"note" : [ 45, 43, 128 ]
		}
, 		{
			"state" : 568,
			"time" : [ 472388, 79 ],
			"seg" : [ 23, 36 ],
			"note" : [ 47, 37, 128 ]
		}
, 		{
			"state" : 569,
			"time" : [ 473246, 76 ],
			"seg" : [ 23, 36 ],
			"note" : [ 51, 46, 128 ]
		}
, 		{
			"state" : 570,
			"time" : [ 473322, 161 ],
			"seg" : [ 23, 36 ],
			"note" : [ 50, 32, 128 ]
		}
, 		{
			"state" : 571,
			"time" : [ 473648, 159 ],
			"seg" : [ 23, 36 ],
			"note" : [ 49, 40, 128 ]
		}
, 		{
			"state" : 572,
			"time" : [ 473807, 160 ],
			"seg" : [ 23, 36 ],
			"note" : [ 50, 22, 128 ]
		}
, 		{
			"state" : 573,
			"time" : [ 473967, 111 ],
			"seg" : [ 23, 36 ],
			"note" : [ 49, 29, 128 ]
		}
, 		{
			"state" : 574,
			"time" : [ 474078, 52 ],
			"seg" : [ 23, 36 ],
			"note" : [ 48, 44, 128 ]
		}
, 		{
			"state" : 575,
			"time" : [ 474237, 61 ],
			"seg" : [ 23, 36 ],
			"note" : [ 46, 37, 128 ]
		}
, 		{
			"state" : 576,
			"time" : [ 474298, 42 ],
			"seg" : [ 23, 36 ],
			"note" : [ 45, 34, 128 ]
		}
, 		{
			"state" : 577,
			"time" : [ 474534, 43 ],
			"seg" : [ 23, 36 ],
			"note" : [ 45, 42, 128 ]
		}
, 		{
			"state" : 578,
			"time" : [ 474622, 33 ],
			"seg" : [ 23, 36 ],
			"note" : [ 45, 8, 128 ]
		}
, 		{
			"state" : 579,
			"time" : [ 474933, 236 ],
			"seg" : [ 23, 36 ],
			"note" : [ 45, 31, 128 ]
		}
, 		{
			"state" : 580,
			"time" : [ 475236, 96 ],
			"seg" : [ 23, 36 ],
			"note" : [ 44, 26, 128 ]
		}
, 		{
			"state" : 581,
			"time" : [ 476528, 56 ],
			"seg" : [ 23, 36 ],
			"note" : [ 44, 32, 128 ]
		}
, 		{
			"state" : 582,
			"time" : [ 476691, 66 ],
			"seg" : [ 23, 36 ],
			"note" : [ 44, 26, 128 ]
		}
, 		{
			"state" : 583,
			"time" : [ 476858, 148 ],
			"seg" : [ 23, 36 ],
			"note" : [ 45, 34, 128 ]
		}
, 		{
			"state" : 584,
			"time" : [ 477050, 208 ],
			"seg" : [ 23, 36 ],
			"note" : [ 44, 41, 128 ]
		}
, 		{
			"state" : 585,
			"time" : [ 477289, 75 ],
			"seg" : [ 23, 36 ],
			"note" : [ 44, 40, 128 ]
		}
, 		{
			"state" : 586,
			"time" : [ 477795, 33 ],
			"seg" : [ 23, 36 ],
			"note" : [ 44, 24, 128 ]
		}
, 		{
			"state" : 587,
			"time" : [ 479533, 80 ],
			"seg" : [ 23, 36 ],
			"note" : [ 44, 25, 128 ]
		}
, 		{
			"state" : 588,
			"time" : [ 479613, 50 ],
			"seg" : [ 23, 36 ],
			"note" : [ 45, 21, 128 ]
		}
, 		{
			"state" : 589,
			"time" : [ 479825, 87 ],
			"seg" : [ 23, 36 ],
			"note" : [ 44, 42, 128 ]
		}
, 		{
			"state" : 590,
			"time" : [ 481678, 45 ],
			"seg" : [ 23, 36 ],
			"note" : [ 46, 15, 128 ]
		}
, 		{
			"state" : 591,
			"time" : [ 481723, 44 ],
			"seg" : [ 23, 36 ],
			"note" : [ 45, 22, 128 ]
		}
, 		{
			"state" : 592,
			"time" : [ 481767, 31 ],
			"seg" : [ 23, 36 ],
			"note" : [ 44, 19, 128 ]
		}
, 		{
			"state" : 593,
			"time" : [ 481798, 19 ],
			"seg" : [ 23, 36 ],
			"note" : [ 43, 14, 128 ]
		}
, 		{
			"state" : 594,
			"time" : [ 482961, 37 ],
			"seg" : [ 23, 36 ],
			"note" : [ 48, 52, 128 ]
		}
, 		{
			"state" : 595,
			"time" : [ 482998, 37 ],
			"seg" : [ 23, 36 ],
			"note" : [ 47, 47, 128 ]
		}
, 		{
			"state" : 596,
			"time" : [ 483142, 54 ],
			"seg" : [ 23, 36 ],
			"note" : [ 48, 48, 128 ]
		}
, 		{
			"state" : 597,
			"time" : [ 483196, 59 ],
			"seg" : [ 23, 36 ],
			"note" : [ 47, 46, 128 ]
		}
, 		{
			"state" : 598,
			"time" : [ 483821, 42 ],
			"seg" : [ 23, 36 ],
			"note" : [ 48, 36, 128 ]
		}
, 		{
			"state" : 599,
			"time" : [ 484316, 53 ],
			"seg" : [ 23, 36 ],
			"note" : [ 49, 40, 128 ]
		}
, 		{
			"state" : 600,
			"time" : [ 484369, 104 ],
			"seg" : [ 23, 36 ],
			"note" : [ 48, 40, 128 ]
		}
, 		{
			"state" : 601,
			"time" : [ 484725, 64 ],
			"seg" : [ 23, 36 ],
			"note" : [ 44, 37, 128 ]
		}
, 		{
			"state" : 602,
			"time" : [ 484924, 59 ],
			"seg" : [ 23, 36 ],
			"note" : [ 47, 37, 128 ]
		}
, 		{
			"state" : 603,
			"time" : [ 484983, 95 ],
			"seg" : [ 23, 36 ],
			"note" : [ 45, 40, 128 ]
		}
, 		{
			"state" : 604,
			"time" : [ 485078, 117 ],
			"seg" : [ 23, 36 ],
			"note" : [ 44, 41, 128 ]
		}
, 		{
			"state" : 605,
			"time" : [ 490022, 152 ],
			"seg" : [ 24, 37 ],
			"note" : [ 44, 36, 128 ]
		}
, 		{
			"state" : 606,
			"time" : [ 490174, 28 ],
			"seg" : [ 24, 37 ],
			"note" : [ 43, 43, 128 ]
		}
, 		{
			"state" : 607,
			"time" : [ 490751, 77 ],
			"seg" : [ 24, 37 ],
			"note" : [ 49, 40, 128 ]
		}
, 		{
			"state" : 608,
			"time" : [ 490991, 32 ],
			"seg" : [ 24, 37 ],
			"note" : [ 51, 41, 128 ]
		}
, 		{
			"state" : 609,
			"time" : [ 491023, 160 ],
			"seg" : [ 24, 37 ],
			"note" : [ 50, 38, 128 ]
		}
, 		{
			"state" : 610,
			"time" : [ 491183, 59 ],
			"seg" : [ 24, 37 ],
			"note" : [ 47, 28, 128 ]
		}
, 		{
			"state" : 611,
			"time" : [ 491242, 43 ],
			"seg" : [ 24, 37 ],
			"note" : [ 48, 39, 128 ]
		}
, 		{
			"state" : 612,
			"time" : [ 491420, 83 ],
			"seg" : [ 24, 37 ],
			"note" : [ 47, 45, 128 ]
		}
, 		{
			"state" : 613,
			"time" : [ 491522, 13 ],
			"seg" : [ 24, 37 ],
			"note" : [ 47, 9, 128 ]
		}
, 		{
			"state" : 614,
			"time" : [ 491697, 90 ],
			"seg" : [ 24, 37 ],
			"note" : [ 46, 25, 128 ]
		}
, 		{
			"state" : 615,
			"time" : [ 492077, 114 ],
			"seg" : [ 24, 37 ],
			"note" : [ 44, 33, 128 ]
		}
, 		{
			"state" : 616,
			"time" : [ 492455, 127 ],
			"seg" : [ 24, 37 ],
			"note" : [ 44, 37, 128 ]
		}
, 		{
			"state" : 617,
			"time" : [ 492796, 87 ],
			"seg" : [ 24, 37 ],
			"note" : [ 45, 39, 128 ]
		}
, 		{
			"state" : 618,
			"time" : [ 492883, 71 ],
			"seg" : [ 24, 37 ],
			"note" : [ 44, 34, 128 ]
		}
, 		{
			"state" : 619,
			"time" : [ 493245, 53 ],
			"seg" : [ 24, 37 ],
			"note" : [ 44, 25, 128 ]
		}
, 		{
			"state" : 620,
			"time" : [ 496526, 67 ],
			"seg" : [ 25, 38 ],
			"note" : [ 46, 45, 128 ]
		}
, 		{
			"state" : 621,
			"time" : [ 496593, 32 ],
			"seg" : [ 25, 38 ],
			"note" : [ 45, 43, 128 ]
		}
, 		{
			"state" : 622,
			"time" : [ 497263, 123 ],
			"seg" : [ 25, 38 ],
			"note" : [ 44, 37, 128 ]
		}
, 		{
			"state" : 623,
			"time" : [ 499458, 69 ],
			"seg" : [ 25, 39 ],
			"note" : [ 45, 29, 128 ]
		}
, 		{
			"state" : 624,
			"time" : [ 499527, 67 ],
			"seg" : [ 25, 39 ],
			"note" : [ 44, 20, 128 ]
		}
, 		{
			"state" : 625,
			"time" : [ 499836, 56 ],
			"seg" : [ 25, 39 ],
			"note" : [ 44, 37, 128 ]
		}
, 		{
			"state" : 626,
			"time" : [ 501762, 86 ],
			"seg" : [ 25, 39 ],
			"note" : [ 45, 39, 128 ]
		}
, 		{
			"state" : 627,
			"time" : [ 501848, 51 ],
			"seg" : [ 25, 39 ],
			"note" : [ 46, 50, 128 ]
		}
, 		{
			"state" : 628,
			"time" : [ 502206, 49 ],
			"seg" : [ 25, 39 ],
			"note" : [ 44, 48, 128 ]
		}
, 		{
			"state" : 629,
			"time" : [ 502327, 44 ],
			"seg" : [ 25, 39 ],
			"note" : [ 44, 42, 128 ]
		}
, 		{
			"state" : 630,
			"time" : [ 507954, 37 ],
			"seg" : [ 26, 40 ],
			"note" : [ 46, 31, 128 ]
		}
, 		{
			"state" : 631,
			"time" : [ 507991, 56 ],
			"seg" : [ 26, 40 ],
			"note" : [ 45, 33, 128 ]
		}
, 		{
			"state" : 632,
			"time" : [ 508047, 31 ],
			"seg" : [ 26, 40 ],
			"note" : [ 44, 40, 128 ]
		}
, 		{
			"state" : 633,
			"time" : [ 508273, 43 ],
			"seg" : [ 26, 40 ],
			"note" : [ 45, 31, 128 ]
		}
, 		{
			"state" : 634,
			"time" : [ 512265, 31 ],
			"seg" : [ 27, 41 ],
			"note" : [ 47, 50, 128 ]
		}
, 		{
			"state" : 635,
			"time" : [ 514047, 128 ],
			"seg" : [ 27, 41 ],
			"note" : [ 44, 12, 128 ]
		}
, 		{
			"state" : 636,
			"time" : [ 514175, 116 ],
			"seg" : [ 27, 41 ],
			"note" : [ 46, 28, 128 ]
		}
, 		{
			"state" : 637,
			"time" : [ 514291, 90 ],
			"seg" : [ 27, 41 ],
			"note" : [ 47, 28, 128 ]
		}
, 		{
			"state" : 638,
			"time" : [ 514653, 51 ],
			"seg" : [ 27, 41 ],
			"note" : [ 44, 18, 128 ]
		}
, 		{
			"state" : 639,
			"time" : [ 516293, 59 ],
			"seg" : [ 27, 41 ],
			"note" : [ 47, 49, 128 ]
		}
, 		{
			"state" : 640,
			"time" : [ 516352, 139 ],
			"seg" : [ 27, 41 ],
			"note" : [ 48, 58, 128 ]
		}
, 		{
			"state" : 641,
			"time" : [ 518358, 41 ],
			"seg" : [ 27, 41 ],
			"note" : [ 48, 32, 128 ]
		}
, 		{
			"state" : 642,
			"time" : [ 518754, 57 ],
			"seg" : [ 27, 41 ],
			"note" : [ 44, 36, 128 ]
		}
, 		{
			"state" : 643,
			"time" : [ 522916, 109 ],
			"seg" : [ 28, 42 ],
			"note" : [ 44, 9, 128 ]
		}
, 		{
			"state" : 644,
			"time" : [ 524419, 44 ],
			"seg" : [ 28, 42 ],
			"note" : [ 46, 53, 128 ]
		}
, 		{
			"state" : 645,
			"time" : [ 524463, 63 ],
			"seg" : [ 28, 42 ],
			"note" : [ 47, 57, 128 ]
		}
, 		{
			"state" : 646,
			"time" : [ 524659, 48 ],
			"seg" : [ 28, 42 ],
			"note" : [ 47, 53, 128 ]
		}
, 		{
			"state" : 647,
			"time" : [ 524707, 74 ],
			"seg" : [ 28, 42 ],
			"note" : [ 48, 58, 128 ]
		}
, 		{
			"state" : 648,
			"time" : [ 524781, 59 ],
			"seg" : [ 28, 42 ],
			"note" : [ 50, 58, 128 ]
		}
, 		{
			"state" : 649,
			"time" : [ 524840, 23 ],
			"seg" : [ 28, 42 ],
			"note" : [ 47, 34, 128 ]
		}
, 		{
			"state" : 650,
			"time" : [ 524863, 93 ],
			"seg" : [ 28, 42 ],
			"note" : [ 48, 47, 128 ]
		}
, 		{
			"state" : 651,
			"time" : [ 524956, 139 ],
			"seg" : [ 28, 42 ],
			"note" : [ 45, 52, 128 ]
		}
, 		{
			"state" : 652,
			"time" : [ 525095, 35 ],
			"seg" : [ 28, 42 ],
			"note" : [ 47, 63, 128 ]
		}
, 		{
			"state" : 653,
			"time" : [ 525357, 78 ],
			"seg" : [ 28, 42 ],
			"note" : [ 45, 43, 128 ]
		}
, 		{
			"state" : 654,
			"time" : [ 525435, 82 ],
			"seg" : [ 28, 42 ],
			"note" : [ 47, 65, 128 ]
		}
, 		{
			"state" : 655,
			"time" : [ 525613, 38 ],
			"seg" : [ 28, 42 ],
			"note" : [ 44, 34, 128 ]
		}
, 		{
			"state" : 656,
			"time" : [ 528260, 43 ],
			"seg" : [ 28, 43 ],
			"note" : [ 44, 38, 128 ]
		}
, 		{
			"state" : 657,
			"time" : [ 529421, 53 ],
			"seg" : [ 28, 43 ],
			"note" : [ 46, 44, 128 ]
		}
, 		{
			"state" : 658,
			"time" : [ 529474, 43 ],
			"seg" : [ 28, 43 ],
			"note" : [ 45, 39, 128 ]
		}
, 		{
			"state" : 659,
			"time" : [ 529831, 69 ],
			"seg" : [ 28, 43 ],
			"note" : [ 45, 45, 128 ]
		}
, 		{
			"state" : 660,
			"time" : [ 532406, 56 ],
			"seg" : [ 28, 44 ],
			"note" : [ 47, 18, 128 ]
		}
, 		{
			"state" : 661,
			"time" : [ 532574, 50 ],
			"seg" : [ 28, 44 ],
			"note" : [ 46, 40, 128 ]
		}
, 		{
			"state" : 662,
			"time" : [ 532771, 62 ],
			"seg" : [ 28, 44 ],
			"note" : [ 54, 57, 128 ]
		}
, 		{
			"state" : 663,
			"time" : [ 533001, 45 ],
			"seg" : [ 28, 44 ],
			"note" : [ 55, 72, 128 ]
		}
, 		{
			"state" : 664,
			"time" : [ 533241, 63 ],
			"seg" : [ 28, 44 ],
			"note" : [ 53, 66, 128 ]
		}
, 		{
			"state" : 665,
			"time" : [ 536850, 37 ],
			"seg" : [ 29, 45 ],
			"note" : [ 50, 32, 128 ]
		}
, 		{
			"state" : 666,
			"time" : [ 536887, 98 ],
			"seg" : [ 29, 45 ],
			"note" : [ 49, 31, 128 ]
		}
, 		{
			"state" : 667,
			"time" : [ 537070, 152 ],
			"seg" : [ 29, 45 ],
			"note" : [ 48, 38, 128 ]
		}
, 		{
			"state" : 668,
			"time" : [ 538961, 206 ],
			"seg" : [ 29, 45 ],
			"note" : [ 50, 12, 128 ]
		}
, 		{
			"state" : 669,
			"time" : [ 539404, 50 ],
			"seg" : [ 29, 45 ],
			"note" : [ 50, 21, 128 ]
		}
, 		{
			"state" : 670,
			"time" : [ 540148, 91 ],
			"seg" : [ 29, 45 ],
			"note" : [ 47, 18, 128 ]
		}
, 		{
			"state" : 671,
			"time" : [ 540590, 58 ],
			"seg" : [ 29, 45 ],
			"note" : [ 45, 10, 128 ]
		}
, 		{
			"state" : 672,
			"time" : [ 541197, 32 ],
			"seg" : [ 29, 45 ],
			"note" : [ 49, 59, 128 ]
		}
, 		{
			"state" : 673,
			"time" : [ 541229, 158 ],
			"seg" : [ 29, 45 ],
			"note" : [ 50, 65, 128 ]
		}
, 		{
			"state" : 674,
			"time" : [ 541438, 37 ],
			"seg" : [ 29, 45 ],
			"note" : [ 50, 16, 128 ]
		}
, 		{
			"state" : 675,
			"time" : [ 542197, 64 ],
			"seg" : [ 29, 45 ],
			"note" : [ 45, 33, 128 ]
		}
, 		{
			"state" : 676,
			"time" : [ 542261, 76 ],
			"seg" : [ 29, 45 ],
			"note" : [ 44, 32, 128 ]
		}
, 		{
			"state" : 677,
			"time" : [ 542775, 50 ],
			"seg" : [ 29, 45 ],
			"note" : [ 49, 11, 128 ]
		}
, 		{
			"state" : 678,
			"time" : [ 543076, 35 ],
			"seg" : [ 29, 45 ],
			"note" : [ 49, 16, 128 ]
		}
, 		{
			"state" : 679,
			"time" : [ 543565, 75 ],
			"seg" : [ 29, 45 ],
			"note" : [ 51, 53, 128 ]
		}
, 		{
			"state" : 680,
			"time" : [ 543813, 72 ],
			"seg" : [ 29, 45 ],
			"note" : [ 47, 40, 128 ]
		}
, 		{
			"state" : 681,
			"time" : [ 554760, 153 ],
			"seg" : [ 30, 46 ],
			"note" : [ 43, 32, 128 ]
		}
, 		{
			"state" : 682,
			"time" : [ 554913, 84 ],
			"seg" : [ 30, 46 ],
			"note" : [ 46, 35, 128 ]
		}
, 		{
			"state" : 683,
			"time" : [ 554997, 40 ],
			"seg" : [ 30, 46 ],
			"note" : [ 47, 31, 128 ]
		}
, 		{
			"state" : 684,
			"time" : [ 555459, 45 ],
			"seg" : [ 30, 46 ],
			"note" : [ 48, 54, 128 ]
		}
, 		{
			"state" : 685,
			"time" : [ 555504, 32 ],
			"seg" : [ 30, 46 ],
			"note" : [ 47, 54, 128 ]
		}
, 		{
			"state" : 686,
			"time" : [ 555536, 68 ],
			"seg" : [ 30, 46 ],
			"note" : [ 48, 50, 128 ]
		}
, 		{
			"state" : 687,
			"time" : [ 555958, 101 ],
			"seg" : [ 30, 46 ],
			"note" : [ 49, 49, 128 ]
		}
, 		{
			"state" : 688,
			"time" : [ 556191, 70 ],
			"seg" : [ 30, 46 ],
			"note" : [ 48, 41, 128 ]
		}
, 		{
			"state" : 689,
			"time" : [ 556261, 69 ],
			"seg" : [ 30, 46 ],
			"note" : [ 46, 37, 128 ]
		}
, 		{
			"state" : 690,
			"time" : [ 556851, 47 ],
			"seg" : [ 30, 46 ],
			"note" : [ 46, 51, 128 ]
		}
, 		{
			"state" : 691,
			"time" : [ 557434, 78 ],
			"seg" : [ 30, 46 ],
			"note" : [ 46, 43, 128 ]
		}
, 		{
			"state" : 692,
			"time" : [ 557512, 54 ],
			"seg" : [ 30, 46 ],
			"note" : [ 45, 39, 128 ]
		}
, 		{
			"state" : 693,
			"time" : [ 557566, 56 ],
			"seg" : [ 30, 46 ],
			"note" : [ 46, 53, 128 ]
		}
, 		{
			"state" : 694,
			"time" : [ 557733, 45 ],
			"seg" : [ 30, 46 ],
			"note" : [ 46, 40, 128 ]
		}
, 		{
			"state" : 695,
			"time" : [ 557778, 83 ],
			"seg" : [ 30, 46 ],
			"note" : [ 45, 40, 128 ]
		}
, 		{
			"state" : 696,
			"time" : [ 557861, 63 ],
			"seg" : [ 30, 46 ],
			"note" : [ 46, 47, 128 ]
		}
, 		{
			"state" : 697,
			"time" : [ 557924, 64 ],
			"seg" : [ 30, 46 ],
			"note" : [ 47, 48, 128 ]
		}
, 		{
			"state" : 698,
			"time" : [ 558598, 61 ],
			"seg" : [ 30, 46 ],
			"note" : [ 46, 49, 128 ]
		}
, 		{
			"state" : 699,
			"time" : [ 558659, 85 ],
			"seg" : [ 30, 46 ],
			"note" : [ 45, 41, 128 ]
		}
, 		{
			"state" : 700,
			"time" : [ 558744, 76 ],
			"seg" : [ 30, 46 ],
			"note" : [ 46, 44, 128 ]
		}
, 		{
			"state" : 701,
			"time" : [ 558820, 74 ],
			"seg" : [ 30, 46 ],
			"note" : [ 47, 48, 128 ]
		}
, 		{
			"state" : 702,
			"time" : [ 558995, 75 ],
			"seg" : [ 30, 46 ],
			"note" : [ 48, 32, 128 ]
		}
, 		{
			"state" : 703,
			"time" : [ 559347, 63 ],
			"seg" : [ 30, 46 ],
			"note" : [ 45, 35, 128 ]
		}
, 		{
			"state" : 704,
			"time" : [ 559496, 78 ],
			"seg" : [ 30, 46 ],
			"note" : [ 45, 42, 128 ]
		}
, 		{
			"state" : 705,
			"time" : [ 559574, 135 ],
			"seg" : [ 30, 46 ],
			"note" : [ 44, 45, 128 ]
		}
, 		{
			"state" : 706,
			"time" : [ 561057, 129 ],
			"seg" : [ 30, 46 ],
			"note" : [ 45, 39, 128 ]
		}
, 		{
			"state" : 707,
			"time" : [ 561434, 231 ],
			"seg" : [ 30, 46 ],
			"note" : [ 45, 39, 128 ]
		}
, 		{
			"state" : 708,
			"time" : [ 561665, 29 ],
			"seg" : [ 30, 46 ],
			"note" : [ 44, 39, 128 ]
		}
, 		{
			"state" : 709,
			"time" : [ 561694, 37 ],
			"seg" : [ 30, 46 ],
			"note" : [ 45, 38, 128 ]
		}
, 		{
			"state" : 710,
			"time" : [ 561731, 241 ],
			"seg" : [ 30, 46 ],
			"note" : [ 44, 39, 128 ]
		}
, 		{
			"state" : 711,
			"time" : [ 561972, 78 ],
			"seg" : [ 30, 46 ],
			"note" : [ 43, 34, 128 ]
		}
, 		{
			"state" : 712,
			"time" : [ 562050, 74 ],
			"seg" : [ 30, 46 ],
			"note" : [ 44, 9, 128 ]
		}
, 		{
			"state" : 713,
			"time" : [ 562781, 48 ],
			"seg" : [ 30, 46 ],
			"note" : [ 44, 44, 128 ]
		}
, 		{
			"state" : 714,
			"time" : [ 563191, 32 ],
			"seg" : [ 30, 46 ],
			"note" : [ 46, 35, 128 ]
		}
, 		{
			"state" : 715,
			"time" : [ 564694, 73 ],
			"seg" : [ 30, 46 ],
			"note" : [ 44, 24, 128 ]
		}
, 		{
			"state" : 716,
			"time" : [ 566597, 90 ],
			"seg" : [ 30, 46 ],
			"note" : [ 45, 18, 128 ]
		}
, 		{
			"state" : 717,
			"time" : [ 566687, 69 ],
			"seg" : [ 30, 46 ],
			"note" : [ 46, 19, 128 ]
		}
, 		{
			"state" : 718,
			"time" : [ 566756, 170 ],
			"seg" : [ 30, 46 ],
			"note" : [ 47, 12, 128 ]
		}
, 		{
			"state" : 719,
			"time" : [ 566961, 81 ],
			"seg" : [ 30, 46 ],
			"note" : [ 47, 29, 128 ]
		}
, 		{
			"state" : 720,
			"time" : [ 567737, 171 ],
			"seg" : [ 30, 46 ],
			"note" : [ 47, 43, 128 ]
		}
, 		{
			"state" : 721,
			"time" : [ 569670, 89 ],
			"seg" : [ 30, 46 ],
			"note" : [ 48, 21, 128 ]
		}
, 		{
			"state" : 722,
			"time" : [ 570848, 135 ],
			"seg" : [ 30, 46 ],
			"note" : [ 53, 39, 128 ]
		}
, 		{
			"state" : 723,
			"time" : [ 571162, 33 ],
			"seg" : [ 30, 46 ],
			"note" : [ 50, 20, 128 ]
		}
, 		{
			"state" : 724,
			"time" : [ 571195, 32 ],
			"seg" : [ 30, 46 ],
			"note" : [ 51, 27, 128 ]
		}
, 		{
			"state" : 725,
			"time" : [ 571415, 169 ],
			"seg" : [ 30, 46 ],
			"note" : [ 53, 28, 128 ]
		}
, 		{
			"state" : 726,
			"time" : [ 572285, 201 ],
			"seg" : [ 30, 46 ],
			"note" : [ 46, 22, 128 ]
		}
, 		{
			"state" : 727,
			"time" : [ 573002, 74 ],
			"seg" : [ 30, 46 ],
			"note" : [ 50, 16, 128 ]
		}
, 		{
			"state" : 728,
			"time" : [ 573221, 38 ],
			"seg" : [ 30, 46 ],
			"note" : [ 50, 12, 128 ]
		}
, 		{
			"state" : 729,
			"time" : [ 573330, 60 ],
			"seg" : [ 30, 46 ],
			"note" : [ 49, 17, 128 ]
		}
, 		{
			"state" : 730,
			"time" : [ 573918, 124 ],
			"seg" : [ 30, 46 ],
			"note" : [ 44, 19, 128 ]
		}
, 		{
			"state" : 731,
			"time" : [ 574172, 168 ],
			"seg" : [ 30, 46 ],
			"note" : [ 47, 43, 128 ]
		}
, 		{
			"state" : 732,
			"time" : [ 574892, 72 ],
			"seg" : [ 30, 46 ],
			"note" : [ 45, 25, 128 ]
		}
, 		{
			"state" : 733,
			"time" : [ 575916, 193 ],
			"seg" : [ 30, 46 ],
			"note" : [ 49, 36, 128 ]
		}
, 		{
			"state" : 734,
			"time" : [ 576182, 67 ],
			"seg" : [ 30, 46 ],
			"note" : [ 49, 9, 128 ]
		}
, 		{
			"state" : 735,
			"time" : [ 576551, 123 ],
			"seg" : [ 30, 46 ],
			"note" : [ 47, 29, 128 ]
		}
, 		{
			"state" : 736,
			"time" : [ 576674, 52 ],
			"seg" : [ 30, 46 ],
			"note" : [ 48, 36, 128 ]
		}
, 		{
			"state" : 737,
			"time" : [ 576726, 38 ],
			"seg" : [ 30, 46 ],
			"note" : [ 47, 31, 128 ]
		}
, 		{
			"state" : 738,
			"time" : [ 576764, 64 ],
			"seg" : [ 30, 46 ],
			"note" : [ 46, 23, 128 ]
		}
, 		{
			"state" : 739,
			"time" : [ 576828, 42 ],
			"seg" : [ 30, 46 ],
			"note" : [ 47, 36, 128 ]
		}
, 		{
			"state" : 740,
			"time" : [ 577481, 60 ],
			"seg" : [ 30, 46 ],
			"note" : [ 45, 37, 128 ]
		}
, 		{
			"state" : 741,
			"time" : [ 577541, 84 ],
			"seg" : [ 30, 46 ],
			"note" : [ 44, 37, 128 ]
		}
, 		{
			"state" : 742,
			"time" : [ 577625, 95 ],
			"seg" : [ 30, 46 ],
			"note" : [ 45, 39, 128 ]
		}
, 		{
			"state" : 743,
			"time" : [ 578069, 55 ],
			"seg" : [ 30, 46 ],
			"note" : [ 44, 33, 128 ]
		}
, 		{
			"state" : 744,
			"time" : [ 578273, 58 ],
			"seg" : [ 30, 46 ],
			"note" : [ 44, 24, 128 ]
		}
, 		{
			"state" : 745,
			"time" : [ 579672, 444 ],
			"seg" : [ 30, 46 ],
			"note" : [ 44, 20, 128 ]
		}
, 		{
			"state" : 746,
			"time" : [ 581713, 62 ],
			"seg" : [ 30, 46 ],
			"note" : [ 45, 40, 128 ]
		}
, 		{
			"state" : 747,
			"time" : [ 581775, 53 ],
			"seg" : [ 30, 46 ],
			"note" : [ 44, 44, 128 ]
		}
, 		{
			"state" : 748,
			"time" : [ 584883, 58 ],
			"seg" : [ 31, 47 ],
			"note" : [ 44, 18, 128 ]
		}
, 		{
			"state" : 749,
			"time" : [ 586488, 35 ],
			"seg" : [ 31, 47 ],
			"note" : [ 46, 32, 128 ]
		}
, 		{
			"state" : 750,
			"time" : [ 586683, 95 ],
			"seg" : [ 31, 47 ],
			"note" : [ 49, 34, 128 ]
		}
, 		{
			"state" : 751,
			"time" : [ 588960, 72 ],
			"seg" : [ 31, 48 ],
			"note" : [ 45, 24, 128 ]
		}
, 		{
			"state" : 752,
			"time" : [ 589032, 109 ],
			"seg" : [ 31, 48 ],
			"note" : [ 44, 21, 128 ]
		}
, 		{
			"state" : 753,
			"time" : [ 589141, 11 ],
			"seg" : [ 31, 48 ],
			"note" : [ 43, 21, 128 ]
		}
, 		{
			"state" : 754,
			"time" : [ 590658, 67 ],
			"seg" : [ 31, 48 ],
			"note" : [ 49, 36, 128 ]
		}
, 		{
			"state" : 755,
			"time" : [ 590725, 34 ],
			"seg" : [ 31, 48 ],
			"note" : [ 47, 31, 128 ]
		}
, 		{
			"state" : 756,
			"time" : [ 591980, 60 ],
			"seg" : [ 31, 48 ],
			"note" : [ 48, 27, 128 ]
		}
, 		{
			"state" : 757,
			"time" : [ 592040, 69 ],
			"seg" : [ 31, 48 ],
			"note" : [ 47, 26, 128 ]
		}
, 		{
			"state" : 758,
			"time" : [ 592109, 71 ],
			"seg" : [ 31, 48 ],
			"note" : [ 45, 25, 128 ]
		}
, 		{
			"state" : 759,
			"time" : [ 592180, 139 ],
			"seg" : [ 31, 48 ],
			"note" : [ 44, 21, 128 ]
		}
, 		{
			"state" : 760,
			"time" : [ 592319, 52 ],
			"seg" : [ 31, 48 ],
			"note" : [ 45, 27, 128 ]
		}
, 		{
			"state" : 761,
			"time" : [ 592371, 121 ],
			"seg" : [ 31, 48 ],
			"note" : [ 46, 32, 128 ]
		}
, 		{
			"state" : 762,
			"time" : [ 593786, 48 ],
			"seg" : [ 31, 48 ],
			"note" : [ 45, 24, 128 ]
		}
, 		{
			"state" : 763,
			"time" : [ 594131, 45 ],
			"seg" : [ 31, 48 ],
			"note" : [ 44, 22, 128 ]
		}
, 		{
			"state" : 764,
			"time" : [ 594825, 47 ],
			"seg" : [ 31, 48 ],
			"note" : [ 45, 25, 128 ]
		}
, 		{
			"state" : 765,
			"time" : [ 594872, 34 ],
			"seg" : [ 31, 48 ],
			"note" : [ 44, 18, 128 ]
		}
, 		{
			"state" : 766,
			"time" : [ 594978, 39 ],
			"seg" : [ 31, 48 ],
			"note" : [ 44, 30, 128 ]
		}
, 		{
			"state" : 767,
			"time" : [ 596077, 37 ],
			"seg" : [ 31, 48 ],
			"note" : [ 44, 21, 128 ]
		}
, 		{
			"state" : 768,
			"time" : [ 596114, 46 ],
			"seg" : [ 31, 48 ],
			"note" : [ 45, 20, 128 ]
		}
, 		{
			"state" : 769,
			"time" : [ 596523, 131 ],
			"seg" : [ 31, 48 ],
			"note" : [ 44, 25, 128 ]
		}
, 		{
			"state" : 770,
			"time" : [ 596707, 126 ],
			"seg" : [ 31, 48 ],
			"note" : [ 44, 18, 128 ]
		}
, 		{
			"state" : 771,
			"time" : [ 596833, 72 ],
			"seg" : [ 31, 48 ],
			"note" : [ 45, 23, 128 ]
		}
, 		{
			"state" : 772,
			"time" : [ 598562, 141 ],
			"seg" : [ 31, 48 ],
			"note" : [ 48, 49, 128 ]
		}
, 		{
			"state" : 773,
			"time" : [ 598880, 182 ],
			"seg" : [ 31, 48 ],
			"note" : [ 49, 44, 128 ]
		}
, 		{
			"state" : 774,
			"time" : [ 599062, 72 ],
			"seg" : [ 31, 48 ],
			"note" : [ 48, 53, 128 ]
		}
, 		{
			"state" : 775,
			"time" : [ 599249, 57 ],
			"seg" : [ 31, 48 ],
			"note" : [ 47, 38, 128 ]
		}
, 		{
			"state" : 776,
			"time" : [ 599478, 51 ],
			"seg" : [ 31, 48 ],
			"note" : [ 46, 44, 128 ]
		}
, 		{
			"state" : 777,
			"time" : [ 599887, 68 ],
			"seg" : [ 31, 48 ],
			"note" : [ 45, 38, 128 ]
		}
, 		{
			"state" : 778,
			"time" : [ 599955, 103 ],
			"seg" : [ 31, 48 ],
			"note" : [ 44, 32, 128 ]
		}
, 		{
			"state" : 779,
			"time" : [ 600102, 52 ],
			"seg" : [ 31, 48 ],
			"note" : [ 44, 7, 128 ]
		}
, 		{
			"state" : 780,
			"time" : [ 603911, 96 ],
			"seg" : [ 32, 49 ],
			"note" : [ 47, 27, 128 ]
		}
, 		{
			"state" : 781,
			"time" : [ 604106, 218 ],
			"seg" : [ 32, 49 ],
			"note" : [ 47, 35, 128 ]
		}
, 		{
			"state" : 782,
			"time" : [ 604324, 60 ],
			"seg" : [ 32, 49 ],
			"note" : [ 46, 23, 128 ]
		}
, 		{
			"state" : 783,
			"time" : [ 604678, 60 ],
			"seg" : [ 32, 49 ],
			"note" : [ 47, 28, 128 ]
		}
, 		{
			"state" : 784,
			"time" : [ 604738, 35 ],
			"seg" : [ 32, 49 ],
			"note" : [ 46, 18, 128 ]
		}
, 		{
			"state" : 785,
			"time" : [ 604818, 40 ],
			"seg" : [ 32, 49 ],
			"note" : [ 48, 31, 128 ]
		}
, 		{
			"state" : 786,
			"time" : [ 604858, 96 ],
			"seg" : [ 32, 49 ],
			"note" : [ 47, 26, 128 ]
		}
, 		{
			"state" : 787,
			"time" : [ 604954, 122 ],
			"seg" : [ 32, 49 ],
			"note" : [ 46, 23, 128 ]
		}
, 		{
			"state" : 788,
			"time" : [ 605076, 34 ],
			"seg" : [ 32, 49 ],
			"note" : [ 45, 33, 128 ]
		}
, 		{
			"state" : 789,
			"time" : [ 605110, 126 ],
			"seg" : [ 32, 49 ],
			"note" : [ 44, 28, 128 ]
		}
, 		{
			"state" : 790,
			"time" : [ 606602, 97 ],
			"seg" : [ 32, 49 ],
			"note" : [ 45, 6, 128 ]
		}
, 		{
			"state" : 791,
			"time" : [ 606699, 94 ],
			"seg" : [ 32, 49 ],
			"note" : [ 44, 8, 128 ]
		}
, 		{
			"state" : 792,
			"time" : [ 607614, 184 ],
			"seg" : [ 32, 49 ],
			"note" : [ 44, 25, 128 ]
		}
, 		{
			"state" : 793,
			"time" : [ 609494, 50 ],
			"seg" : [ 32, 49 ],
			"note" : [ 47, 43, 128 ]
		}
, 		{
			"state" : 794,
			"time" : [ 609612, 96 ],
			"seg" : [ 32, 49 ],
			"note" : [ 46, 32, 128 ]
		}
, 		{
			"state" : 795,
			"time" : [ 609708, 72 ],
			"seg" : [ 32, 49 ],
			"note" : [ 45, 30, 128 ]
		}
, 		{
			"state" : 796,
			"time" : [ 609780, 126 ],
			"seg" : [ 32, 49 ],
			"note" : [ 44, 33, 128 ]
		}
, 		{
			"state" : 797,
			"time" : [ 610708, 59 ],
			"seg" : [ 32, 49 ],
			"note" : [ 44, 25, 128 ]
		}
, 		{
			"state" : 798,
			"time" : [ 613636, 119 ],
			"seg" : [ 33, 50 ],
			"note" : [ 44, 17, 128 ]
		}
, 		{
			"state" : 799,
			"time" : [ 616469, 21 ],
			"seg" : [ 33, 51 ],
			"note" : [ 43, 20, 128 ]
		}
, 		{
			"state" : 800,
			"time" : [ 619781, 137 ],
			"seg" : [ 34, 52 ],
			"note" : [ 44, 40, 128 ]
		}
, 		{
			"state" : 801,
			"time" : [ 623074, 136 ],
			"seg" : [ 35, 53 ],
			"note" : [ 47, 8, 128 ]
		}
, 		{
			"state" : 802,
			"time" : [ 623210, 73 ],
			"seg" : [ 35, 53 ],
			"note" : [ 48, 10, 128 ]
		}
, 		{
			"state" : 803,
			"time" : [ 623283, 172 ],
			"seg" : [ 35, 53 ],
			"note" : [ 47, 7, 128 ]
		}
, 		{
			"state" : 804,
			"time" : [ 623537, 109 ],
			"seg" : [ 35, 53 ],
			"note" : [ 47, 4, 128 ]
		}
, 		{
			"state" : 805,
			"time" : [ 624019, 32 ],
			"seg" : [ 35, 53 ],
			"note" : [ 49, 19, 128 ]
		}
, 		{
			"state" : 806,
			"time" : [ 624266, 74 ],
			"seg" : [ 35, 53 ],
			"note" : [ 53, 39, 128 ]
		}
, 		{
			"state" : 807,
			"time" : [ 624340, 59 ],
			"seg" : [ 35, 53 ],
			"note" : [ 52, 10, 128 ]
		}
, 		{
			"state" : 808,
			"time" : [ 625049, 107 ],
			"seg" : [ 35, 53 ],
			"note" : [ 49, 20, 128 ]
		}
, 		{
			"state" : 809,
			"time" : [ 625466, 36 ],
			"seg" : [ 35, 53 ],
			"note" : [ 47, 24, 128 ]
		}
, 		{
			"state" : 810,
			"time" : [ 625936, 44 ],
			"seg" : [ 35, 53 ],
			"note" : [ 45, 32, 128 ]
		}
, 		{
			"state" : 811,
			"time" : [ 627282, 165 ],
			"seg" : [ 35, 53 ],
			"note" : [ 44, 25, 128 ]
		}
, 		{
			"state" : 812,
			"time" : [ 629284, 77 ],
			"seg" : [ 35, 53 ],
			"note" : [ 47, 42, 128 ]
		}
, 		{
			"state" : 813,
			"time" : [ 629361, 140 ],
			"seg" : [ 35, 53 ],
			"note" : [ 48, 47, 128 ]
		}
, 		{
			"state" : 814,
			"time" : [ 629501, 56 ],
			"seg" : [ 35, 53 ],
			"note" : [ 45, 41, 128 ]
		}
, 		{
			"state" : 815,
			"time" : [ 629740, 39 ],
			"seg" : [ 35, 53 ],
			"note" : [ 44, 26, 128 ]
		}
, 		{
			"state" : 816,
			"time" : [ 629779, 33 ],
			"seg" : [ 35, 53 ],
			"note" : [ 45, 30, 128 ]
		}
, 		{
			"state" : 817,
			"time" : [ 630030, 51 ],
			"seg" : [ 35, 53 ],
			"note" : [ 44, 34, 128 ]
		}
, 		{
			"state" : 818,
			"time" : [ 631635, 60 ],
			"seg" : [ 35, 53 ],
			"note" : [ 45, 44, 128 ]
		}
, 		{
			"state" : 819,
			"time" : [ 631695, 92 ],
			"seg" : [ 35, 53 ],
			"note" : [ 44, 43, 128 ]
		}
, 		{
			"state" : 820,
			"time" : [ 631854, 53 ],
			"seg" : [ 35, 53 ],
			"note" : [ 44, 38, 128 ]
		}
, 		{
			"state" : 821,
			"time" : [ 635299, 49 ],
			"seg" : [ 36, 54 ],
			"note" : [ 44, 18, 128 ]
		}
, 		{
			"state" : 822,
			"time" : [ 637470, 115 ],
			"seg" : [ 36, 55 ],
			"note" : [ 46, 43, 128 ]
		}
, 		{
			"state" : 823,
			"time" : [ 637741, 75 ],
			"seg" : [ 36, 55 ],
			"note" : [ 47, 43, 128 ]
		}
, 		{
			"state" : 824,
			"time" : [ 638582, 51 ],
			"seg" : [ 36, 55 ],
			"note" : [ 46, 35, 128 ]
		}
, 		{
			"state" : 825,
			"time" : [ 638955, 64 ],
			"seg" : [ 36, 55 ],
			"note" : [ 46, 14, 128 ]
		}
, 		{
			"state" : 826,
			"time" : [ 639019, 38 ],
			"seg" : [ 36, 55 ],
			"note" : [ 44, 22, 128 ]
		}
, 		{
			"state" : 827,
			"time" : [ 639484, 43 ],
			"seg" : [ 36, 55 ],
			"note" : [ 99, 16, 128 ]
		}
, 		{
			"state" : 828,
			"time" : [ 639604, 40 ],
			"seg" : [ 36, 55 ],
			"note" : [ 44, 37, 128 ]
		}
, 		{
			"state" : 829,
			"time" : [ 640279, 48 ],
			"seg" : [ 36, 55 ],
			"note" : [ 44, 30, 128 ]
		}
, 		{
			"state" : 830,
			"time" : [ 640814, 55 ],
			"seg" : [ 36, 55 ],
			"note" : [ 44, 27, 128 ]
		}
, 		{
			"state" : 831,
			"time" : [ 644746, 144 ],
			"seg" : [ 37, 56 ],
			"note" : [ 44, 37, 128 ]
		}
, 		{
			"state" : 832,
			"time" : [ 646075, 59 ],
			"seg" : [ 37, 56 ],
			"note" : [ 43, 31, 128 ]
		}
, 		{
			"state" : 833,
			"time" : [ 646361, 30 ],
			"seg" : [ 37, 56 ],
			"note" : [ 43, 34, 128 ]
		}
, 		{
			"state" : 834,
			"time" : [ 647004, 103 ],
			"seg" : [ 37, 56 ],
			"note" : [ 44, 7, 128 ]
		}
, 		{
			"state" : 835,
			"time" : [ 647706, 57 ],
			"seg" : [ 37, 56 ],
			"note" : [ 44, 49, 128 ]
		}
, 		{
			"state" : 836,
			"time" : [ 651291, 99 ],
			"seg" : [ 38, 57 ],
			"note" : [ 45, 43, 128 ]
		}
, 		{
			"state" : 837,
			"time" : [ 651390, 105 ],
			"seg" : [ 38, 57 ],
			"note" : [ 48, 55, 128 ]
		}
, 		{
			"state" : 838,
			"time" : [ 662434, 59 ],
			"seg" : [ 39, 58 ],
			"note" : [ 45, 17, 128 ]
		}
, 		{
			"state" : 839,
			"time" : [ 662649, 39 ],
			"seg" : [ 39, 58 ],
			"note" : [ 44, 24, 128 ]
		}
, 		{
			"state" : 840,
			"time" : [ 664699, 42 ],
			"seg" : [ 39, 59 ],
			"note" : [ 51, 59, 128 ]
		}
, 		{
			"state" : 841,
			"time" : [ 664898, 62 ],
			"seg" : [ 39, 59 ],
			"note" : [ 51, 48, 128 ]
		}
, 		{
			"state" : 842,
			"time" : [ 669644, 77 ],
			"seg" : [ 40, 60 ],
			"note" : [ 44, 18, 128 ]
		}
, 		{
			"state" : 843,
			"time" : [ 669721, 71 ],
			"seg" : [ 40, 60 ],
			"note" : [ 48, 10, 128 ]
		}
, 		{
			"state" : 844,
			"time" : [ 672145, 52 ],
			"seg" : [ 40, 61 ],
			"note" : [ 44, 32, 128 ]
		}
, 		{
			"state" : 845,
			"time" : [ 676902, 37 ],
			"seg" : [ 41, 62 ],
			"note" : [ 44, 24, 128 ]
		}
, 		{
			"state" : 846,
			"time" : [ 678081, 94 ],
			"seg" : [ 41, 62 ],
			"note" : [ 45, 38, 128 ]
		}
, 		{
			"state" : 847,
			"time" : [ 678797, 37 ],
			"seg" : [ 41, 62 ],
			"note" : [ 45, 40, 128 ]
		}
, 		{
			"state" : 848,
			"time" : [ 678834, 39 ],
			"seg" : [ 41, 62 ],
			"note" : [ 44, 39, 128 ]
		}
, 		{
			"state" : 849,
			"time" : [ 678996, 71 ],
			"seg" : [ 41, 62 ],
			"note" : [ 44, 34, 128 ]
		}
, 		{
			"state" : 850,
			"time" : [ 680079, 54 ],
			"seg" : [ 41, 62 ],
			"note" : [ 44, 3, 128 ]
		}
, 		{
			"state" : 851,
			"time" : [ 680985, 88 ],
			"seg" : [ 41, 62 ],
			"note" : [ 44, 34, 128 ]
		}
, 		{
			"state" : 852,
			"time" : [ 681992, 44 ],
			"seg" : [ 41, 62 ],
			"note" : [ 44, 37, 128 ]
		}
, 		{
			"state" : 853,
			"time" : [ 682342, 136 ],
			"seg" : [ 41, 62 ],
			"note" : [ 45, 29, 128 ]
		}
, 		{
			"state" : 854,
			"time" : [ 682478, 103 ],
			"seg" : [ 41, 62 ],
			"note" : [ 46, 31, 128 ]
		}
, 		{
			"state" : 855,
			"time" : [ 683131, 112 ],
			"seg" : [ 41, 62 ],
			"note" : [ 47, 17, 128 ]
		}
, 		{
			"state" : 856,
			"time" : [ 683243, 104 ],
			"seg" : [ 41, 62 ],
			"note" : [ 46, 13, 128 ]
		}
, 		{
			"state" : 857,
			"time" : [ 683347, 86 ],
			"seg" : [ 41, 62 ],
			"note" : [ 48, 29, 128 ]
		}
, 		{
			"state" : 858,
			"time" : [ 683540, 74 ],
			"seg" : [ 41, 62 ],
			"note" : [ 48, 22, 128 ]
		}
, 		{
			"state" : 859,
			"time" : [ 683614, 56 ],
			"seg" : [ 41, 62 ],
			"note" : [ 47, 32, 128 ]
		}
, 		{
			"state" : 860,
			"time" : [ 683670, 31 ],
			"seg" : [ 41, 62 ],
			"note" : [ 46, 33, 128 ]
		}
, 		{
			"state" : 861,
			"time" : [ 683765, 60 ],
			"seg" : [ 41, 62 ],
			"note" : [ 45, 33, 128 ]
		}
, 		{
			"state" : 862,
			"time" : [ 683984, 41 ],
			"seg" : [ 41, 62 ],
			"note" : [ 44, 21, 128 ]
		}
, 		{
			"state" : 863,
			"time" : [ 685308, 59 ],
			"seg" : [ 41, 62 ],
			"note" : [ 44, 16, 128 ]
		}
, 		{
			"state" : 864,
			"time" : [ 688661, 110 ],
			"seg" : [ 42, 63 ],
			"note" : [ 70, 24, 128 ]
		}
, 		{
			"state" : 865,
			"time" : [ 691844, 139 ],
			"seg" : [ 43, 64 ],
			"note" : [ 46, 27, 128 ]
		}
, 		{
			"state" : 866,
			"time" : [ 692047, 47 ],
			"seg" : [ 43, 64 ],
			"note" : [ 46, 8, 128 ]
		}
, 		{
			"state" : 867,
			"time" : [ 692094, 86 ],
			"seg" : [ 43, 64 ],
			"note" : [ 45, 22, 128 ]
		}
, 		{
			"state" : 868,
			"time" : [ 692180, 163 ],
			"seg" : [ 43, 64 ],
			"note" : [ 44, 27, 128 ]
		}
, 		{
			"state" : 869,
			"time" : [ 692343, 212 ],
			"seg" : [ 43, 64 ],
			"note" : [ 45, 27, 128 ]
		}
, 		{
			"state" : 870,
			"time" : [ 693105, 186 ],
			"seg" : [ 43, 64 ],
			"note" : [ 44, 19, 128 ]
		}
, 		{
			"state" : 871,
			"time" : [ 693669, 29 ],
			"seg" : [ 43, 64 ],
			"note" : [ 107, 5, 128 ]
		}
, 		{
			"state" : 872,
			"time" : [ 696290, 53 ],
			"seg" : [ 43, 65 ],
			"note" : [ 44, 35, 128 ]
		}
, 		{
			"state" : 873,
			"time" : [ 697584, 31 ],
			"seg" : [ 43, 65 ],
			"note" : [ 44, 17, 128 ]
		}
, 		{
			"state" : 874,
			"time" : [ 702936, 82 ],
			"seg" : [ 44, 66 ],
			"note" : [ 45, 18, 128 ]
		}
, 		{
			"state" : 875,
			"time" : [ 703918, 40 ],
			"seg" : [ 44, 66 ],
			"note" : [ 46, 35, 128 ]
		}
, 		{
			"state" : 876,
			"time" : [ 704310, 65 ],
			"seg" : [ 44, 66 ],
			"note" : [ 46, 25, 128 ]
		}
, 		{
			"state" : 877,
			"time" : [ 704375, 104 ],
			"seg" : [ 44, 66 ],
			"note" : [ 45, 39, 128 ]
		}
, 		{
			"state" : 878,
			"time" : [ 705066, 40 ],
			"seg" : [ 44, 66 ],
			"note" : [ 45, 20, 128 ]
		}
, 		{
			"state" : 879,
			"time" : [ 705106, 51 ],
			"seg" : [ 44, 66 ],
			"note" : [ 44, 20, 128 ]
		}
, 		{
			"state" : 880,
			"time" : [ 707734, 47 ],
			"seg" : [ 44, 67 ],
			"note" : [ 44, 20, 128 ]
		}
, 		{
			"state" : 881,
			"time" : [ 708040, 148 ],
			"seg" : [ 44, 67 ],
			"note" : [ 46, 37, 128 ]
		}
, 		{
			"state" : 882,
			"time" : [ 710775, 46 ],
			"seg" : [ 44, 68 ],
			"note" : [ 49, 19, 128 ]
		}
, 		{
			"state" : 883,
			"time" : [ 710993, 83 ],
			"seg" : [ 44, 68 ],
			"note" : [ 48, 15, 128 ]
		}
, 		{
			"state" : 884,
			"time" : [ 711243, 62 ],
			"seg" : [ 44, 68 ],
			"note" : [ 47, 20, 128 ]
		}
, 		{
			"state" : 885,
			"time" : [ 711305, 66 ],
			"seg" : [ 44, 68 ],
			"note" : [ 48, 24, 128 ]
		}
, 		{
			"state" : 886,
			"time" : [ 712119, 87 ],
			"seg" : [ 44, 68 ],
			"note" : [ 57, 57, 128 ]
		}
 ]
}
